Mon	B	Mod	R0	R1	R2	R3	R4	R5	R6	R7	R8	R9	R10	Comments
-8	H	%	0	5	10	15	20	25	30	35	40	45	50	5% Health Bonus per Rank
-1	A	+	0	0	1	1	1	1	2	2	2	2	3	Default Lvl 1 Attack R2/R6/R10
-1	D	+	0	1	1	1	1	2	2	2	2	3	3	Default Lvl 1 Defense R1/R5/R9
-1	M	+	0	0	0	1	1	1	1	2	2	2	2	Default Lvl 1 Max. Damage R3/R7
-1	m	+	0	0	0	0	1	1	1	1	2	2	2	Default Lvl 1 Min. Damage R4/R8
-2	A	+	0	0	1	1	2	2	2	3	3	3	4	Default Lvl 2 Attack R2/R4/R7/R10
-2	D	+	0	1	1	1	2	2	3	3	3	4	4	Default Lvl 2 Defense R1/R4/R6/R9
-2	M	+	0	0	1	1	1	2	2	2	3	3	4	Default Lvl 2 Max. Damage R2/R5/R8/R10
-2	m	+	0	0	0	1	1	1	2	2	3	3	3	Default Lvl 2 Min. Damage R3/R6/R8
-3	A	+	0	1	1	2	2	3	3	4	4	5	5	Default Lvl 3 Attack R1/R3/R5/R7/R9
-3	D	+	0	1	1	2	2	3	3	4	4	5	5	Default Lvl 3 Defense R1/R3/R5/R7/R9
-3	M	+	0	0	1	1	2	2	3	3	4	4	5	Default Lvl 3 Max. Damage R2/R4/R6/R8/R10
-3	m	+	0	0	1	1	2	2	3	3	4	4	5	Default Lvl 3 Min. Damage R2/R4/R6/R8/R10
-4	A	+	0	1	2	2	3	4	5	6	6	7	8	Default Lvl 4 Attack R1/R2/R4/R5/R6/R7/R9/R10
-4	D	+	0	1	2	3	3	4	4	5	6	7	8	Default Lvl 4 Defense R1/R2/R3/R5/R7/R8/R9/R10
-4	M	+	0	0	1	1	2	2	3	3	4	4	5	Default Lvl 4 Max. Damage R2/R4/R6/R8/R10
-4	m	+	0	0	0	1	2	2	3	3	4	4	4	Default Lvl 4 Min. Damage R3/R4/R6/R8
-5	A	+	0	1	1	2	3	4	5	5	6	7	8	Default Lvl 5 Attack R1/R3/R4/R5/R6/R7/R9/R10
-5	D	+	0	1	2	3	3	4	5	6	6	7	8	Default Lvl 5 Defense R1/R2/R3/R5/R6/R7/R9/R10
-5	M	+	0	1	2	2	3	4	4	5	6	7	7	Default Lvl 5 Max. Damage R1/R2/R4/R5/R6/R8/R10
-5	m	+	0	0	1	2	3	3	4	5	6	6	7	Default Lvl 5 Min. Damage R2/R3/R4/R6/R7/R8/R10
-6	A	+	0	1	2	3	4	4	5	6	7	8	9	Default Lvl 6 Attack +1/Rank except R5
-6	D	+	0	1	2	2	3	4	5	6	7	8	9	Default Lvl 6 Defense +1/Rank except R3
-6	M	+	0	1	2	3	4	5	6	7	8	8	9	Default Lvl 6 Max. Damage +1/Rank except R9
-6	m	+	0	0	1	2	3	4	5	5	6	7	8	Default Lvl 6 Min. Damage +1/Rank except R7
-7	A	+	0	1	2	3	4	5	6	7	8	9	10	Default Lvl 7 Attack +1/Rank
-7	D	+	0	1	2	3	4	5	6	7	8	9	10	Default Lvl 7 Defense +1/Rank
-7	M	+	0	1	2	3	4	5	6	7	8	9	10	Default Lvl 7 Max. Damage +1/Rank
-7	m	+	0	1	2	3	4	5	6	7	8	9	10	Default Lvl 7 Min. Damage +1/Rank
0	S	+	0	0	0	0	1	1	1	1	1	1	1	Pikeman: Speed R4
0	f	B	2	2	2	2	2	1	1	1	1	1	1	Pikeman: 2-hex (Breath) Attack R5
0	h	#66	0	0	0	2	2	3	3	4	4	5	6	Pikeman: Hatred Dmg-Black Knight
0	h	#67	0	0	0	2	2	3	3	4	4	5	6	Pikeman: Hatred Dmg-Dread Knight
0	f	f	0	0	0	0	0	1	1	1	1	1	1	Pikeman: Fearless R5
1	S	+	0	0	0	0	1	1	1	1	1	1	1	Halberdier: Speed R4
1	h	#66	0	0	0	2	2	3	3	4	4	5	6	Halberdier: Hatred Dmg-Black Knight
1	h	#67	0	0	0	2	2	3	3	4	4	5	6	Halberdier: Hatred Dmg-Dread Knight
1	L	#64	0	2	4	6	8	10	12	14	16	18	20	Halberdier: Deflect 65% of dmg. 2% chance/Rank
1	f	f	0	0	0	0	0	1	1	1	1	1	1	Halberdier: Fearless R5
2	S	+	0	0	0	0	1	1	1	1	1	1	1	Archer: Speed R4
2	o	=	0	0	0	1	1	1	1	1	1	1	1	Archer: No Obstacle Penalty R3
2	b	=	0	4	8	12	16	20	24	28	32	36	40	Archer: Reduce Defense 4%/Rank
3	S	+	0	0	0	0	1	1	1	1	1	1	2	Marksman: Speed R4/R10
3	o	=	0	0	0	0	0	1	1	1	1	1	1	Marksman: No Obstacle Penalty R5
3	b	=	0	2	4	6	8	10	12	14	16	18	20	Marksman: Reduce Defense 2%/Rank
4	S	+	0	0	0	0	1	1	1	1	1	1	2	Griffin Speed: R4/R10
4	L	#125	0	6	12	18	24	30	36	42	48	54	60	Griffin: 25% chance to Deflect 6% dmg./Rank
5	S	+	0	0	0	0	1	1	1	1	1	1	2	Royal Griffin: Speed R4/R10
5	L	#125	0	6	12	18	24	30	36	42	48	54	60	Royal Griffin: 25% chance to Deflect 6% dmg./Rank
6	S	+	0	0	0	0	1	1	1	1	1	1	1	Swordsman: Speed R4
6	e	=	0	5	10	15	20	25	30	35	40	45	50	Swordsman: Death Blow 5%/Rank
6	f	f	0	0	0	0	0	1	1	1	1	1	1	Swordsman: Fearless R5
7	S	+	0	0	0	0	1	1	1	1	1	1	2	Crusader: Speed R4/R10
7	e	=	0	2	5	7	10	12	15	17	20	22	25	Crusader: Death Blow 2.5%/Rank
7	h	#62	0	1	2	3	4	5	6	7	8	9	10	Crusader: Hatred Dmg-Vampire
7	h	#63	0	1	2	3	4	5	6	7	8	9	10	Crusader: Hatred Dmg-Vampire Lord
8	S	+	0	0	0	0	1	1	1	1	1	1	1	Monk: Speed R4
8	w	m	0	0	0	1	1	1	1	1	1	1	1	Monk: Immune to Hostile Mind Spells R3
8	r	#100	0	0	0	0	0	50	50	50	50	50	50	Monk: Regeneration-50 50% R5
8	g	%	0	3	6	9	12	15	21	24	27	30	33	Monk: Reduced Spell Damage 3%/Rank
9	S	+	0	0	0	0	1	1	1	1	1	1	2	Zealot: Speed R4/R10
9	w	m	0	0	0	1	1	1	1	1	1	1	1	Zealot: Immune to Hostile Mind Spells R3
9	r	#100	0	0	0	0	0	50	50	50	50	50	50	Zealot: Regeneration-50 50% R5
9	g	%	0	3	6	9	12	15	21	24	27	30	33	Zealot: Reduced Spell Damage 3%/Rank
10	S	+	0	0	0	0	1	1	1	1	1	1	2	Cavalier: Speed 40/100%
10	f	b	0	0	0	1	1	1	1	1	1	1	1	Cavalier: Strike & Return R3
10	s	#55	0	0	0	0	0	0	0	1	2	3	3	Cavalier: Slayer R7/R8/R9
10	f	f	0	0	0	0	0	1	1	1	1	1	1	Cavalier: Fearless R5
11	S	+	0	0	0	0	1	1	1	1	1	1	2	Champion: Speed R4/R10
11	f	R	2	2	2	2	2	1	1	1	1	1	1	Champion: No Retaliation R5
11	s	#55	0	0	0	0	0	0	0	1	2	3	3	Champion: Slayer R7/R8/R9
11	f	f	0	0	0	1	1	1	1	1	1	1	1	Champion: Fearless R3
12	S	+	0	0	0	0	1	1	2	2	2	2	3	Angel: Speed R4/R6/R10
12	w	R	0	0	0	1	1	1	1	1	1	1	1	Angel: Immune to Armageddon R3
12	w	m	0	0	0	0	0	0	0	1	1	1	1	Angel: Immune to Hostile Mind Spells R7
12	W	+	0	0	0	0	0	0	10	20	30	40	50	Angel: Magic Resistance R6 10%/Rank
12	f	u	0	0	0	0	0	0	0	1	1	1	1	Angel: Aura of Resistance
12	f	f	0	0	0	0	0	1	1	1	1	1	1	Angel: Fearless R5
12	w	W	0	0	0	0	0	0	0	1	1	1	1	Angel: Immune to Hostile Water Spells R7
13	S	+	0	0	0	0	1	1	2	2	2	2	3	Archangel: Speed R4/R6/R10
13	f	f	0	0	0	0	0	1	1	1	1	1	1	Archangel: Fearless R5
13	w	W	0	0	0	0	0	0	0	1	1	1	1	Archangel: Immune to Hostile Water Spells R7
13	w	R	0	0	0	1	1	1	1	1	1	1	1	Archangel: Immune to Armageddon R3
13	w	m	0	0	0	0	0	0	0	0	1	1	1	Archangel: Immune to Hostile Mind Spells R8
13	W	+	0	0	0	0	0	0	10	20	30	40	50	Archangel: Magic Resistance R6 10%/Rank
13	P	+	0	0	0	0	0	0	0	1	1	1	1	Archangel: Extra Resurrection R7
150	S	+	0	0	0	0	1	1	2	2	3	3	4	Supreme Archangel: Speed R4/R6/R8/R10
150	w	R	0	0	0	1	1	1	1	1	1	1	1	Supreme Archangel: Immune to Armageddon R3
150	w	m	0	0	0	0	0	0	0	0	1	1	1	Supreme Archangel: Immune to Hostile Mind Spells R8
150	W	+	0	0	0	0	0	0	10	20	30	40	50	Supreme Archangel: Magic Resistance R6 10%/Rank
150	P	+	0	0	0	0	0	0	0	1	1	1	1	Supreme Archangel: Extra Resurrection R7
150	w	W	0	0	0	0	0	0	0	1	1	1	1	Supreme Archangel: Immune to Hostile Water Spells R7
14	A	+	0	0	1	1	1	1	2	2	3	3	3	Centaur: Attack R2/R6/R8
14	D	+	0	0	0	1	1	1	1	1	1	1	1	Centaur: Defense R3
14	M	+	0	1	1	1	1	2	2	2	2	2	2	Centaur: Max. Damage R1/R5
14	m	+	0	0	0	0	0	1	1	1	1	2	2	Centaur: Min. Damage R5/R9
14	S	+	0	0	0	0	1	1	1	1	1	1	2	Centaur: Speed R4/R10
14	f	E	2	2	2	2	2	2	2	1	1	1	1	Centaur: No Melee Penalty R7
14	f	S	0	0	0	0	0	0	1	1	1	1	1	Centaur: Shooter R6
14	O	+	0	0	0	0	0	0	2	2	3	4	5	Centaur: Shots R6/R8/R9/R10
14	h	#98	0	2	4	6	8	10	12	14	16	18	20	Centaur: Hatred Dmg-Gnoll
15	A	+	0	0	0	1	1	1	2	2	2	2	2	Centaur Captain: Attack R3/R6
15	D	+	0	1	1	1	1	1	1	2	2	3	4	Centaur Captain: Defense R1/R7/R9/R10
15	M	+	0	0	0	0	0	1	1	1	2	2	2	Centaur Captain: Max. Damage R5/R8
15	m	+	0	0	1	1	1	1	1	1	1	1	1	Centaur Captain: Min. Damage R2
15	S	+	0	0	0	0	1	1	1	1	1	1	2	Centaur Captain: Speed R4/R10
15	f	c	0	0	0	0	0	0	0	1	1	1	1	Centaur Captain: Charge Bonus R7
15	h	#99	0	2	4	6	8	10	12	14	16	18	20	Centaur Captain: Hatred Dmg-Gnoll Marauder
16	H	%	0	6	12	18	24	30	36	42	48	54	60	Dwarf: Health 6%/Rank (instead of 5%)
16	A	+	0	0	1	1	1	2	2	3	3	3	3	Dwarf: Attack R2/R5/R7
16	D	+	0	1	1	1	1	1	3	3	3	4	4	Dwarf: Defense R1/R6/R9
16	M	+	0	0	0	1	1	1	1	2	3	3	3	Dwarf: Max. Damage R3/R7/R8
16	m	+	0	0	0	0	1	1	1	2	2	3	3	Dwarf: Min. Damage R4/R7/R9
16	S	+	0	0	0	0	1	1	1	1	1	1	2	Dwarf: Speed R4/R10
16	s	#27	0	0	0	0	0	0	0	1	1	1	2	Dwarf: Shield R7/R10
16	W	+	0	3	6	9	12	15	18	21	24	27	30	Dwarf: Magic Resistance +3%/Rank
17	H	%	0	7	14	21	28	35	42	49	56	63	70	Battle Dwarf: Health 7%/Rank (instead of 5%)
17	A	+	0	0	1	1	2	2	2	3	4	4	5	Battle Dwarf: Attack R2/R4/R7/R8/R10
17	D	+	0	1	1	1	1	1	2	2	3	4	4	Battle Dwarf: Defense R1/R6/R8/R9
17	M	+	0	0	0	1	1	2	2	2	3	3	3	Battle Dwarf: Max. Damage R3/R5/R8
17	m	+	0	0	0	1	1	2	2	3	3	3	3	Battle Dwarf: Min. Damage R3/R5/R7
17	S	+	0	0	0	0	1	1	1	1	1	1	1	Battle Dwarf: Speed R4
17	W	+	0	4	8	12	16	20	24	28	32	36	40	Battle Dwarf: Magic Resistance +4%/Rank
18	A	+	0	2	2	2	3	3	4	4	4	5	5	Wood Elf: Attack R1/R4/R6/R9
18	D	+	0	0	1	1	1	1	1	3	3	3	3	Wood Elf: Defense: R2/R7
18	M	+	0	0	1	2	2	4	4	4	5	6	6	Wood Elf: Max. Damage R2/R3/R5/R8/R9
18	m	+	0	0	0	1	1	1	2	2	4	4	4	Wood Elf: Min. Damage R3/R6/R8
18	S	+	0	0	0	0	1	1	1	2	2	2	3	Wood Elf: Speed R4/R7/R10
18	i	=	0	0	0	0	0	1	1	1	1	1	1	Wood Elf: No Range Penalty R5
18	o	=	0	0	0	0	0	0	0	0	0	0	1	Wood Elf: No Obstacle Penalty R10
18	h	#88	0	1	2	3	4	5	5	5	5	5	5	Wood Elf: Hatred Dmg-Orc
19	A	+	0	1	2	2	2	3	3	3	4	4	4	Grand Elf: Attack R1/R2/R5/R8
19	D	+	0	1	1	3	3	3	4	4	5	5	6	Grand Elf: Defense R1/R3/R6/R8/R10
19	M	+	0	0	1	1	1	1	2	2	3	4	5	Grand Elf: Max. Damage R2/R6/R8/R9/R10
19	m	+	0	0	0	0	2	2	3	3	4	5	5	Grand Elf: Min. Damage R4/R6/R8/R9
19	S	+	0	0	0	0	1	1	1	1	1	1	2	Grand Elf: Speed R4/R10
19	w	m	0	0	0	0	0	0	0	1	1	1	1	Grand Elf: Immune to Hostile Mind Spells R7
19	s	#44	0	0	0	0	0	1	1	1	1	1	1	Grand Elf: Precision R5
19	h	#89	0	1	2	3	4	5	5	5	5	5	5	Grand Elf: Hatred Dmg-Orc Chieftain
20	A	+	0	2	2	2	2	3	4	5	6	7	8	Pegasus: Attack R1/R5/R6/R7/R8/R9/R10
20	D	+	0	0	1	1	3	3	4	4	5	5	7	Pegasus: Defense R2/R4/R6/R8/R10
20	M	+	0	0	1	2	2	2	2	3	3	4	4	Pegasus: Max. Damage R2/R3/R7/R9
20	m	+	0	0	1	1	2	2	2	3	3	3	3	Pegasus: Min. Damage R2/R4/R7
20	S	+	0	0	0	0	1	1	1	2	2	2	3	Pegasus: Speed R4/R7/R10
20	f	D	2	2	2	2	2	2	2	1	1	1	1	Pegasus: Double Strike R7
21	A	+	0	0	1	2	2	2	4	4	5	7	7	Silver Pegasus: Attack R2/R3/R6/R8/R9
21	D	+	0	2	2	2	3	3	4	4	5	5	7	Silver Pegasus: Defense R1/R4/R6/R8/R10
21	M	+	0	0	2	2	2	4	4	4	5	5	5	Silver Pegasus: Max. Damage R2/R5/R8
21	m	+	0	0	0	1	1	2	2	4	4	5	5	Silver Pegasus: Min. Damage R3/R5/R7/R9
21	S	+	0	0	0	0	1	1	2	2	2	2	3	Silver Pegasus: Speed R4/R6/R10
21	f	b	0	0	0	0	0	1	1	1	1	1	1	Silver Pegasus: Attack & Return R5
21	f	R	2	2	2	2	2	2	2	2	2	2	1	Silver Pegasus: No Retaliation R10
22	A	+	0	0	1	2	2	4	4	5	5	6	7	Dendroid Guard: Attack R2/R3/R5/R7/R9/R10
22	D	+	0	2	3	3	4	4	7	7	9	9	10	Dendroid Guard: Defense R1/R2/R4/R6/R8/R10
22	M	+	0	1	2	2	3	3	3	3	4	5	6	Dendroid Guard: Max. Damage R1/R2/R4/R8/R9/R10
22	m	+	0	0	2	2	2	4	4	6	6	7	7	Dendroid Guard: Min. Damage R2/R5/R7/R9
22	S	+	0	0	0	0	1	1	1	1	1	1	1	Dendroid Guard: Speed R4
22	r	#100	0	5	10	15	20	25	30	35	40	45	50	Dendroid Guard: Regeneration 5 Health/Rank 100%
22	w	E	0	0	0	0	0	0	0	0	0	0	1	Dendroid Guard: Immune to Hostile Earth Spells R10
23	A	+	0	2	3	3	4	6	6	7	7	7	9	Dendroid Soldier: Attack R1/R2/R4/R5/R7/R10
23	D	+	0	1	1	2	3	4	5	6	6	8	8	Dendroid Soldier: Defense R1/R3/R4/R5/R6/R7/R9
23	M	+	0	0	2	2	2	2	3	4	6	6	6	Dendroid Soldier: Max. Damage R2/R6/R7/R8
23	m	+	0	0	0	2	2	2	4	4	5	5	5	Dendroid Soldier: Min. Damage R3/R6/R8
23	S	+	0	0	0	0	0	1	1	1	1	1	2	Dendroid Soldier: Speed R5/R10
23	b	=	0	4	8	12	16	20	24	28	32	36	40	Dendroid Soldier: Reduce Enemy Defence 4%/Rank
23	w	E	0	0	0	0	0	0	0	0	0	0	1	Dendroid Soldier: Immune to Hostile Earth Spells R10
24	A	+	0	0	2	2	4	4	4	6	7	9	9	Unicorn: Attack R2/R4/R7/R8/R9
24	D	+	0	3	3	4	4	6	8	8	9	10	10	Unicorn: Defense R1/R3/R5/R6/R8/R9
24	M	+	0	0	1	3	3	3	3	5	6	6	8	Unicorn: Max. Damage R2/R3/R7/R8/R10
24	m	+	0	0	1	1	1	3	4	4	5	6	8	Unicorn: Min. Damage R2/R5/R6/R8/R9/R10
24	S	+	0	0	0	0	1	1	1	1	1	1	2	Unicorn: Speed R4/R10
24	p	#37	0	0	0	5	5	10	10	15	15	15	20	Unicorn: Mass Cure pre-attack 5%-20% chance
24	f	f	0	0	0	0	0	0	1	1	1	1	1	Unicorn: Fearless R6
25	A	+	0	1	2	2	2	4	7	7	9	10	11	War Unicorn: Attack R1/R2/R5/R6/R8/R9/R10
25	D	+	0	1	1	3	3	5	5	5	6	6	8	War Unicorn: Defense R1/R3/R5/R8/R10
25	M	+	0	0	2	2	4	4	4	6	7	9	9	War Unicorn: Max. Damage R2/R4/R7/R8/R9
25	m	+	0	1	2	4	4	4	4	6	6	7	7	War Unicorn: Min. Damage R1/R2/R3/R7/R9
25	S	+	0	0	0	0	1	1	1	1	1	1	2	War Unicorn: Speed R4/R10
25	a	#62	0	0	5	5	10	10	15	15	20	25	30	War Unicorn: Blind bonus R2/R4/R6/R8/R9/R10
25	f	f	0	0	0	0	0	0	1	1	1	1	1	War Unicorn: Fearless R6
26	A	+	0	1	2	2	4	5	5	7	7	7	9	Green Dragon: Attack R1/R2/R4/R5/R7/R10
26	D	+	0	2	2	4	4	7	7	9	9	11	11	Green Dragon: Defense R1/R3/R5/R7/R9
26	M	+	0	1	3	4	5	5	7	7	9	11	11	Green Dragon: Max. Damage R1/R2/R3/R4/R6/R8/R9
26	m	+	0	0	1	2	2	2	3	4	6	7	9	Green Dragon: Min. Damage R2/R3/R6/R7/R8/R9/R10
26	S	+	0	0	0	0	1	1	2	2	2	2	3	Green Dragon: Speed R4/R6/R10
26	R	+	0	0	0	0	0	1	1	1	1	1	2	Green Dragon: Extra Retaliations R5/R10
26	h	#68	0	2	4	6	8	10	12	14	16	18	20	Green Dragon: Hatred Dmg-Bone Dragon 20%/Rank
26	h	#69	0	2	4	6	8	10	12	14	16	18	20	Green Dragon: Hatred Dmg-Ghost Dragon 20%/Rank
26	f	f	0	0	0	0	0	1	1	1	1	1	1	Green Dragon: Fearless R5
26	w	0	0	0	0	0	0	0	0	1	1	1	1	Green Dragon: No Immunity to Beneficial Spells R7
27	A	+	0	1	2	2	4	5	7	7	9	11	12	Gold Dragon: Attack R1/R2/R4/R5/R6/R8/R9/R10
27	D	+	0	1	1	3	3	5	5	7	7	8	9	Gold Dragon: Defense R1/R3/R5/R7/R9/R10
27	M	+	0	1	3	4	4	5	7	7	9	9	9	Gold Dragon: Max. Damage R1/R2/R3/R5/R6/R8
27	m	+	0	1	2	3	4	5	5	7	7	8	10	Gold Dragon: Min. Dmg R1/R2/R3/R4/R5/R7/R9/R10
27	S	+	0	0	0	0	1	1	2	2	2	2	3	Gold Dragon: Speed R4/R6/R10
27	h	#68	0	2	4	6	8	10	12	14	16	18	20	Gold Dragon: Hatred Dmg-Bone Dragon 20%/Rank
27	h	#69	0	2	4	6	8	10	12	14	16	18	20	Gold Dragon: Hatred Dmg-Ghost Dragon 20%/Rank
27	f	f	0	0	0	0	0	1	1	1	1	1	1	Gold Dragon: Fearless R5
27	w	0	0	0	0	0	0	0	0	1	1	1	1	Gold Dragon: No Immunity to Beneficial Spells R7
192	S	+	0	0	0	0	1	1	1	1	1	1	2	Sylvan Centaurs: Speed R4/R10
192	w	1	0	0	0	0	0	0	1	1	1	1	1	Sylvan Centaur: Immune to Hostile L1 Spells R6
151	S	+	0	0	0	0	1	1	2	2	2	2	3	Diamond Dragon: Speed R4/R6/R10
151	L	#200	0	5	10	15	20	25	30	35	40	45	50	Diamond Dragon: Deflect 100% chance 5%/Rank
151	f	u	0	0	0	0	0	0	0	1	1	1	1	Diamond Dragon: Aura of Resistance R7
151	h	#154	0	2	4	6	8	10	12	14	16	18	20	Diamond Dragon: Hatred Dmg-Blood Dragon 20%/Rank
151	w	0	0	0	0	0	0	0	0	0	0	1	1	Diamond Dragon: No Immunity to Friendly Spells R9
28	S	+	0	0	0	0	1	1	1	1	1	1	1	Gremlin: Speed R4
28	h	#42	0	1	2	3	4	5	5	5	5	5	5	Gremlin: Hatred Dmg-Imp (50% R10)
28	J	#11	0	5	10	15	20	25	30	35	40	45	50	Gremlin: Landmine pre-attack 5%/Rank
29	S	+	0	0	0	0	1	1	1	1	1	1	1	Master Gremlin: Speed R4
29	h	#43	0	1	2	3	4	5	5	5	5	5	5	Master Gremlin: Hatred Dmg-Familiar (50% R10)
29	O	+	0	1	2	3	4	5	6	7	8	9	10	Master Gremlin: +1 Shot/Rank
29	J	#11	0	5	10	15	20	25	30	35	40	45	50	Master Gremlin: Landmine pre-attack 5%/Rank
30	S	+	0	0	0	0	1	1	1	1	1	1	2	Stone Gargoyle: Speed R4/R10
30	s	#46	0	0	0	1	1	2	2	2	2	5	5	"Stone Gargoyle: Stone Skin R3/R5, Mass R9"
30	w	E	0	0	0	0	0	0	0	1	1	1	1	Stone Gargoyle: Immune to Hostile Earth Spells R7
31	S	+	0	0	0	0	1	1	1	1	1	1	2	Obsidian Gargoyle: Speed R4/R10
31	s	#46	0	0	0	1	1	2	2	2	2	5	5	"Obsidian Gargoyle: Stone Skin R3/R5, Mass R9"
31	w	E	0	0	0	0	0	0	0	1	1	1	1	Obsidian Gargoyle: Immune to Hostile Earth Spells R7
32	S	+	0	0	0	0	1	1	1	1	1	1	1	Stone Golem: Speed R4
32	f	R	2	2	2	2	2	1	1	1	1	1	1	Stone Golem: No Retaliation R5
32	g	%	50	54	58	62	66	70	74	78	82	86	90	Stone Golem: Reduced Spell Damage +4%/Rank
33	S	+	0	0	0	0	1	1	1	1	1	1	1	Iron Golem: Speed R4
33	f	R	2	2	2	2	2	1	1	1	1	1	1	Iron Golem: No Retaliation R5
33	g	%	75	77	79	81	83	85	87	89	91	93	95	Iron Golems: Reduced Spell Damage +2%/Rank
34	S	+	0	0	0	0	1	1	1	1	1	1	1	Mage: Speed R4
34	C	+	0	0	0	0	0	1	1	2	2	3	4	Mage: Mana Reduction R5/R7/R9/R10
35	S	+	0	0	0	0	1	1	1	1	1	1	2	Arch Mage: Speed R40/R10
35	C	+	0	0	0	0	0	1	1	2	2	3	4	Arch Mage: Mana Reduction R5/R7/R9/R10
36	S	+	0	0	0	0	1	1	1	1	1	1	2	Genie: Speed R4/R10
36	h	#52	5	6	7	8	9	10	12	14	16	18	20	Genie: Hatred Dmg-Efreet (200% R10)
36	h	#53	5	6	7	8	9	10	12	14	16	18	20	Genie: Hatred Dmg-Efreet Sultan (200% R10)
36	w	B	0	0	0	1	1	1	1	1	1	1	1	Genie: Blind Immunity R3
36	w	H	0	0	0	0	0	1	1	1	1	1	1	Genie: Hypnotize Immunity R5
36	w	K	0	0	0	0	0	0	0	1	1	1	1	Genie: Berserk Immunity R7
37	S	+	0	0	0	0	1	1	2	2	2	2	3	Master Genie: Speed at 40/60/100%
37	P	+	0	0	0	0	0	1	1	2	2	3	3	Master Genie: Increased # of Spells R5/R7/R9
37	h	#52	5	6	7	8	9	10	12	14	16	18	20	Master Genie: Hatred Dmg-Efreet (200% R10)
37	h	#53	5	6	7	8	9	10	12	14	16	18	20	Master Genie: Hatred Dmg-Efreet Sultan (200% R10)
37	w	B	0	0	0	1	1	1	1	1	1	1	1	Master Genie: Blind Immunity R3
37	w	H	0	0	0	0	0	1	1	1	1	1	1	Master Genie: Hypnotize Immunity R5
37	w	K	0	0	0	0	0	0	0	1	1	1	1	Master Genie: Berserk Immunity R7
38	S	+	0	0	0	0	1	1	1	1	1	1	1	Naga: Speed R4
38	R	+	0	0	0	0	0	1	1	2	2	3	4	Naga: Extra Retals R5/R7/R9/R10
38	e	+	0	1	2	3	4	5	10	15	20	25	30	Naga: Death Blow (30% R10)
39	S	+	0	0	0	0	1	1	1	1	1	1	2	Naga Queen: Speed R4/R10
39	R	+	0	0	0	0	0	1	1	2	2	3	4	Naga Queen: Extra Retals R5/R7/R9/R10
39	e	+	0	1	2	3	4	5	10	15	20	25	30	Naga Queen: 2 x Dmg Death Blow (30% R10)
40	S	+	0	0	0	0	1	1	1	1	1	1	2	Giant: Speed R4/R10
40	h	#82	5	6	7	8	9	10	12	14	16	18	20	Giant: Hatred Dmg-Red Dragon (200% R10)
40	W	+	0	5	10	15	20	25	30	35	40	45	50	Giant: Magic Resistance 5%/Rank
40	w	A	0	0	0	0	0	1	1	1	1	1	1	Giant: Hostile Air Spell Immunity R5
40	w	0	0	0	1	1	1	1	1	1	1	1	1	Giant: No Immunity to Beneficial Mind Spells R3
40	f	f	0	0	0	0	0	1	1	1	1	1	1	Giant: Fearless R5
40	f	D	2	2	2	2	2	2	2	1	1	1	1	Giant: Double Strike at R7
41	S	+	0	0	0	0	1	1	2	2	2	2	3	Titan: Speed R4/R6/R10
41	h	#83	5	6	7	8	9	10	12	14	16	18	20	Titan: Hatred Dmg-Black Dragon (200% R10)
41	W	+	0	5	10	15	20	25	30	35	40	45	50	Titan: Magic Resistance 5%/Rank
41	w	A	0	0	0	0	0	1	1	1	1	1	1	Titan: Immune to Hostile Air Spells R5
41	w	0	0	0	0	1	1	1	1	1	1	1	1	Titan: No Immunity to Beneficial Mind Spells R3
41	o	=	0	0	0	0	0	0	0	1	1	1	1	Titan: No Obstacle Penalty R7
41	i	=	0	0	0	0	0	0	0	0	0	1	1	Titan: No Range Penalty R9
152	S	+	0	0	0	0	1	1	2	2	2	2	3	Lord of Thunder: Speed R4/R6/R10
152	h	#155	5	6	7	8	9	10	12	14	16	18	20	Lord of Thunder: Hatred Dmg-Darkness Dragon
152	W	+	0	5	10	15	20	25	30	35	40	45	50	Lord of Thunder: Magic Resistance 5%/Rank
152	w	0	0	0	0	1	1	1	1	1	1	1	1	Lord of Thunder: Not Immune Beneficial Mind Spells R3
152	w	A	0	0	0	0	0	1	1	1	1	1	1	Lord of Thunder: Immune to Hostile Air Spells R5
152	o	=	0	0	0	0	0	0	0	1	1	1	1	Lord of Thunder: No Obstacle Penalty R7
152	i	=	0	0	0	0	0	0	0	0	0	1	1	Lord of Thunder: No Range Penalty R9
42	S	+	0	0	0	0	0	1	1	1	1	1	2	Imp: Speed R5/R10
42	f	F	2	2	2	2	2	1	1	1	1	1	1	Imp: Flying R5/R6/R7/R8/R9/R10
42	h	#28	0	0	0	0	0	0	1	2	3	4	5	Imp: Hatred Dmg-Gremlin (50% R10)
42	s	#51	0	1	1	1	1	2	2	2	3	3	3	Imp: Fortune R1/R5/R8  (Expert R8)
43	S	+	0	0	0	0	0	1	1	1	1	1	2	Familiar: Speed R5/R10
43	f	F	2	2	2	2	2	1	1	1	1	1	1	Familiar: Flying R5
43	h	#29	0	0	0	0	0	0	1	2	3	4	5	Familiar: Hatred Dmg-Master Gremlin (50% R10)
43	s	#51	0	1	1	1	1	2	2	2	3	3	3	Familiar: Fortune R1/R5/R8 (Expert R8)
44	S	+	0	0	0	0	1	1	1	1	1	1	1	Gog: Speed R4
44	s	#31	0	0	0	0	0	1	1	1	1	1	1	Gog: Protection from Fire R5 (30% Resistance)
44	f	D	2	2	2	2	2	2	2	1	1	1	1	Gog: Shoot Twice R7
44	i	=	0	0	0	0	0	0	0	0	1	1	1	Gog: No Range Penalty R8
45	S	+	0	0	0	0	1	1	1	1	1	1	2	Magog: Speed R4/R10
45	s	#31	0	0	0	0	0	1	1	1	1	1	1	Magog: Protection from Fire R5 (30% Resistance)
45	i	=	0	0	0	0	0	0	0	0	1	1	1	Magog: No Range Penalty R8
45	p	#21	0	5	10	15	20	25	30	35	40	45	50	Magog: Fireball pre-attack 5%/Rank
46	S	+	0	0	0	0	1	1	1	1	1	1	2	Hell Hound: Speed R4/R10
46	s	#31	0	0	0	1	1	1	1	1	2	2	2	Hell Hound: Protection from Fire R3=30% R8=50%
46	f	D	2	2	2	2	2	2	1	1	1	1	1	Hell Hound: Strike Twice R6
46	h	#4	0	0	0	0	0	0	1	2	3	4	5	Hell Hound: Hatred Dmg-Griffin (50% R10)
46	f	f	0	0	0	0	0	0	0	0	1	1	1	Hell Hound: Fearless R8
47	S	+	0	0	0	0	1	1	1	1	1	1	2	Cerberus: Speed R4/R10
47	s	#31	0	0	0	1	1	1	1	1	2	2	2	Cerberus: Protection from Fire R3=30% R8=50%
47	R	+	0	0	0	0	0	1	1	1	2	2	2	Cerberus: Retaliate Twice R8/R9/R10
47	h	#5	0	0	0	0	0	0	1	2	3	4	5	Cerberus: Hatred Dmg-Royal Griffin (50% R10)
47	a	#73	0	5	10	15	20	25	30	35	40	45	50	Cerberus: Disease post-attack 5%/Rank
47	f	f	0	0	0	0	0	0	0	0	1	1	1	Cerberus: Fearless R8
48	S	+	0	0	0	0	1	1	1	1	1	1	1	Demon: Speed R4
48	s	#31	0	1	1	1	1	1	1	2	2	2	2	Demon: Protection from Fire R1=30% R7=50%
48	L	#74	0	1	2	3	4	5	10	15	20	25	30	Demon: Deflect 75% of Dmg. (30% R10)
48	e	=	0	0	0	5	10	15	20	25	30	40	50	Demon: 2 x Dmg Death Blow (50% R10)
48	f	f	0	0	0	0	0	0	0	0	1	1	1	Demon: Fearless R8
49	S	+	0	0	0	0	1	1	1	1	1	1	2	Horned Demon: Speed R4/R10
49	s	#31	0	1	1	1	1	1	1	2	2	2	2	Horned Demon: Protection from Fire R1=30% R7=50%
49	L	#74	0	1	2	3	4	5	10	15	20	25	30	Horned Demon: Deflect 75% of Dmg. (30% R10)
49	e	=	0	0	0	5	10	15	20	25	30	40	50	Horned Demon: 2 x Dmg Death Blow (50% R10)
49	f	f	0	0	0	0	0	0	0	0	1	1	1	Horned Demon: Fearless R8
50	S	+	0	0	0	0	1	1	1	1	1	1	2	Pit Fiend: Speed R4/R10
50	s	#31	0	1	1	1	2	2	2	2	3	3	3	Pit Fiend: Protection from Fire R1=30% R5=50%
50	w	m	0	0	0	0	0	0	1	1	1	1	1	Pit Fiend: Immune to Hostile Mind Spells R6
50	f	D	2	2	2	2	2	2	2	1	1	1	1	Pit Fiend: Strike Twice R7
50	f	f	0	0	0	0	0	0	0	1	1	1	1	Pit Fiend: Fearless R7
50	u	#48	0	0	0	10	10	15	15	20	20	25	25	Pit Fiend: Summon Demons round 2 R3/R5/R7/R9
51	S	+	0	0	0	0	1	1	1	1	1	1	2	Pit Lord: Speed R4/R10
51	s	#31	0	1	1	1	2	2	2	2	3	3	3	Pit Lord: Protection from Fire R1=30% R5=50%
51	w	m	0	0	0	0	0	0	1	1	1	1	1	Pit Lord: Immune to Hostile Mind Spells R6
51	f	D	2	2	2	2	2	2	2	1	1	1	1	Pit Lord: Strike Twice R7
51	f	f	0	0	0	0	0	0	0	1	1	1	1	Pit Lord: Fearless R7
51	u	#49	0	0	0	5	5	10	10	15	15	20	20	Pit Lord: Summon Horned Demons round 2 R3/R5/R7/R9
52	S	+	0	0	0	0	1	1	1	1	1	1	2	Efreet: Speed R4/R10
52	w	m	0	0	0	0	0	1	1	1	1	1	1	Efreet: Immune to Hostile Mind Spells R5
52	f	f	0	0	0	0	0	1	1	1	1	1	1	Efreet: Fearless R5
52	h	#36	0	0	0	0	0	0	1	2	3	4	5	Efreet: Hatred Dmg-Genie (50% R10)
52	s	#29	0	0	0	0	0	0	0	1	1	2	3	Efreet: Fire Shield R7/R9/R10 (Expert at R10)
52	p	#66	0	5	10	15	20	25	30	35	40	45	50	Efreet: Summon Fire Elemental pre-attack 5%/Rank
52	w	0	0	0	0	0	1	1	1	1	1	1	1	Efreet: No Immunity to Beneficial Fire Spells R5
53	S	+	0	0	0	0	1	1	2	2	2	2	3	Efreet Sultan: Speed R4/R6/R10
53	w	m	0	0	0	0	0	1	1	1	1	1	1	Efreet Sultan: Immune to Hostile Mind Spells R5
53	f	f	0	0	0	0	0	1	1	1	1	1	1	Efreet Sultan: Fearless R5
53	h	#37	0	0	0	0	0	0	1	2	3	4	5	Efreet Sultan: Hatred Dmg-Master Genie (50% R10)
53	s	#29	0	0	0	0	0	0	0	0	0	0	5	Efreet Sultan: Mass Fire Shield R10
53	f	R	2	2	2	2	2	2	2	1	1	1	1	Efreet Sultan: No Retaliation R7
53	w	0	0	0	0	0	1	1	1	1	1	1	1	Efreet Sultan: Not Immune Beneficial Fire Spells R5
54	S	+	0	0	0	0	0	1	1	2	2	3	3	Devil: Speed R5/R7/R9
54	w	F	0	0	0	1	1	1	1	1	1	1	1	Devil: Immune to Hostile Fire Spells R3
54	w	E	0	0	0	0	0	0	0	1	1	1	1	Devil: Immune to Hostile Earth Spells R7
54	p	#52	0	5	10	15	20	25	30	35	40	45	50	Devil: Mass Misfortune pre-attack 5%/Rank
54	f	f	0	0	0	0	0	1	1	1	1	1	1	Devil: Fearless R5
54	w	m	0	0	0	0	0	0	0	1	1	1	1	Devil: Immune to Hostile Mind Spells R7
54	W	+	0	0	0	0	0	0	10	20	30	40	50	Devil: Magic Resistance R6 10%/Rank
55	S	+	0	0	0	0	0	1	1	2	2	3	4	Arch Devil: Speed R5/R7/R9/R10
55	w	F	0	0	0	1	1	1	1	1	1	1	1	Arch Devil: Immune to Hostile Fire Spells R3
55	w	E	0	0	0	0	0	0	0	1	1	1	1	Arch Devil: Immune to Hostile Earth Spells R7
55	f	f	0	0	0	0	0	1	1	1	1	1	1	Arch Devil: Fearless R5
55	c	#59	0	5	10	15	20	25	30	35	40	45	50	Arch Devil: Berserk post-attack 5%/Rank
55	w	m	0	0	0	0	0	0	0	0	1	1	1	Arch Devil: Immune to Hostile Mind Spells R8
55	W	+	0	0	0	0	0	0	10	20	30	40	50	Arch Devil: Magic Resistance R6 10%/Rank
153	S	+	0	0	0	0	0	1	2	2	3	4	5	Antichrist: Speed R5/R6/R8/R9/R10
153	w	F	0	0	0	1	1	1	1	1	1	1	1	Antichrist: Immune to Hostile Fire Spells R3
153	w	E	0	0	0	0	0	0	0	1	1	1	1	Antichrist: Immune to Hostile Earth Spells R7
153	w	m	0	0	0	0	0	0	0	0	1	1	1	Antichrist: Immune to Hostile Mind Spells R8
153	W	+	0	0	0	0	0	0	10	20	30	40	50	Antichrist: Magic Resistance R6 10%/Rank
153	p	#50	0	5	10	15	20	25	30	35	40	45	50	Antichrist: Mass Sorrow pre-attack 5%/Rank
56	S	+	0	0	0	0	0	0	0	0	1	1	1	Skeleton: Speed R8
56	s	#28	0	0	0	1	1	1	2	2 	2	2	2	Skeleton: Air Shield R3/R6
56	w	N	0	0	0	0	0	1	1	1	1	1	1	Skeleton: Immune to Dispel Beneficial Spells R5
56	w	P	0	0	0	0	0	0	0	1	1	0	0	Skeleton: Immune to all Regular Dispels R7-R8
56	w	p	0	0	0	0	0	0	0	0	0	1	1	Skeleton: Immune to Hostile Dispels R9
57	S	+	0	0	0	0	0	0	0	0	1	1	1	Skeleton Warrior: Speed R8
57	s	#28	0	0	0	1	1	1	2	2	2	2	2	Skeleton Warrior: Air Shield R3/R6
57	w	N	0	0	0	0	0	1	1	1	1	1	1	Skeleton Warrior: Immune to Dispel Beneficial Spells R5
57	w	P	0	0	0	0	0	0	0	1	1	0	0	Skeleton Warrior: Immune to all Regular Dispels R7-R8
57	w	p	0	0	0	0	0	0	0	0	0	1	1	Skeleton Warrior: Immune to Hostile Dispels R9
58	S	+	0	0	0	0	1	1	1	1	1	1	1	Walking Dead: Speed R4
58	K	#54	0	5	10	15	20	25	30	35	40	45	50	Walking Dead: Advanced Slow after attack 5%/Rank
58	w	1	0	0	0	0	0	1	1	1	1	1	1	Walking Dead: Immune to Hostile L1 Spells R5
59	S	+	0	0	0	0	1	1	1	1	1	1	1	Zombie: Speed R4
59	c	#73	0	8	16	24	32	40	48	56	64	72	80	Zombie: Disease +8%/Rank
59	w	1	0	0	0	0	0	1	1	1	1	1	1	Zombie: Immune to Hostile L1 Spells R5
60	S	+	0	0	0	0	1	1	1	1	1	1	1	Wight: Speed R4
60	J	#45	0	5	10	15	20	25	30	35	40	45	50	Wight: Advanced Weakness pre-attack 5%/Rank
60	W	+	0	6	12	18	24	30	36	42	48	54	60	Wight: 6% Magic Resistance/Rank
61	S	+	0	0	0	0	1	1	1	1	1	1	2	Wraith: Speed R4/R10
61	p	#52	0	5	10	15	20	25	30	35	40	45	50	Wraith: Mass Misfortune pre-attack 5%/Rank
61	W	+	0	6	12	18	24	30	36	42	48	54	60	Wraith: 6% Magic Resistance/Rank
62	S	+	0	0	0	0	1	1	1	1	1	1	2	Vampire: Speed R4/R10
62	b	=	0	5	10	15	20	25	30	35	40	45	50	Vampire: Reduce Target's Defense 5%/Rank
62	f	D	2	2	2	2	2	2	2	2	2	1	1	Vampire: Double Strike R9
63	S	+	0	0	0	0	1	1	1	1	1	1	2	Vampire Lord: Speed R4/R10
63	b	=	0	5	10	15	20	25	30	35	40	45	50	Vampire Lord: Reduce Target's Defense 5%/Rank
63	a	#60	0	2	4	6	8	10	12	14	16	18	20	Vampire Lord: Hypnotize 2%/Rank
64	S	+	0	0	0	0	1	1	1	1	1	1	2	Lich: Speed R4/R10
64	p	#24	0	5	10	15	20	25	30	35	40	45	50	Lich: Death Ripple pre-attack 5%/Rank
64	w	1	0	0	0	0	0	1	1	1	1	1	1	Lich: Immune to L1 Spells R5
64	w	2	0	0	0	0	0	0	0	0	0	1	1	Lich: Immune to L2 Spells R9
64	h	#34	0	1	2	3	4	5	6	7	8	9	10	Lich: Hatred Dmg-Mage
65	S	+	0	0	0	0	1	1	1	1	1	1	2	Power Lich: Speed R4/R10
65	p	#24	0	5	10	15	20	25	30	35	40	45	50	Power Lich: Death Ripple pre-attack 5%/Rank
65	w	1	0	0	0	0	0	1	1	1	1	1	1	Power Lich: Immune to L1 Spells R5
65	w	2	0	0	0	0	0	0	0	0	0	1	1	Power Lich: Immune to L2 Spells R9
65	h	#35	0	1	2	3	4	5	6	7	8	9	10	Power Lich: Hatred Dmg-Arch Mage
66	S	+	0	0	0	0	1	1	1	1	1	1	2	Black Knight: Speed R4/R10
66	a	#78	0	10	20	30	40	50	60	70	80	90	100	Black Knight: Dispel Beneficial Spells 10%/Rank
66	f	R	2	2	2	2	2	2	2	1	1	1	1	Black Knight: No Retaliation R7
66	h	#10	0	1	2	3	4	5	6	7	8	9	10	Black Knight: Hatred Dmg-Cavalier
67	S	+	0	0	0	0	1	1	1	1	1	1	2	Dread Knight: Speed R4/R10
67	e	=	20	28	36	44	52	60	68	76	84	92	100	Dread Knight: Death Blow +8%/Rank
67	f	R	2	2	2	2	2	2	2	1	1	1	1	Dread Knight: No Retaliation R7
67	h	#11	0	1	2	3	4	5	6	7	8	9	10	Dread Knight: Hatred Dmg-Champion
68	S	+	0	0	0	0	1	1	1	1	1	1	2	Bone Dragon: Speed R4/R10
68	s	#28	0	0	1	1	1	2	2	2	2	2	2	Bone Dragon: Air Shield R2/R5
68	f	D	2	2	2	2	2	2	2	1	1	1	1	Bone Dragon: Double Strike R7
68	w	F	0	0	0	1	1	1	1	1	1	1	1	Bone Dragon: Immune to Hostile Fire Spells R3
68	w	W	0	0	0	0	0	1	1	1	1	1	1	Bone Dragon: Immune to Hostile Water Spells R5
68	w	A	0	0	0	0	0	0	0	1	1	1	1	Bone Dragon: Immune to Hostile Air Spells R7
68	w	E	0	0	0	0	0	0	0	0	0	1	1	Bone Dragon: Immune to Hostile Earth Spells R9
69	S	+	0	0	0	0	1	1	2	2	2	2	3	Ghost Dragon: Speed R4/R6/R10
69	c	#75	0	8	16	24	32	40	48	56	64	72	80	Ghost Dragon: Aging +8%/Rank
69	F	=	0	0	0	0	0	1	1	1	1	1	1	Ghost Dragon: Fear R5
69	w	F	0	0	0	1	1	1	1	1	1	1	1	Ghost Dragon: Immune to Hostile Fire Spells R3
69	w	W	0	0	0	0	0	1	1	1	1	1	1	Ghost Dragon: Immune to Hostile Water Spells R5
69	w	A	0	0	0	0	0	0	0	1	1	1	1	Ghost Dragon: Immune to Hostile Air Spells R7
69	w	E	0	0	0	0	0	0	0	0	0	1	1	Ghost Dragon: Immune to Hostile Earth Spells R9
154	S	+	0	0	0	0	1	1	2	2	2	2	3	Blood Dragon: Speed R4/R6/R10
154	c	#75	0	8	16	24	32	40	48	56	64	72	80	Blood Dragon: Aging +8%/Rank
154	F	=	0	0	0	0	0	1	1	1	1	1	1	Blood Dragon: Fear R5
154	w	F	0	0	0	1	1	1	1	1	1	1	1	Blood Dragon: Immune to Hostile Fire Spells R3
154	w	W	0	0	0	0	0	1	1	1	1	1	1	Blood Dragon: Immune to Hostile Water Spells R5
154	w	A	0	0	0	0	0	0	0	1	1	1	1	Blood Dragon: Immune to Hostile Air Spells R7
154	w	E	0	0	0	0	0	0	0	0	0	1	1	Blood Dragon: Immune to Hostile Earth Spells R9
70	S	+	0	0	0	0	1	1	1	1	1	1	1	Troglodyte: Speed R4
70	c	#54	0	3	6	9	12	15	18	21	24	27	30	Troglodyte: Slow on hit 3%/Rank
70	h	#118	0	1	1	2	2	3	3	4	4	5	6	Troglodyte: Hatred Dmg-Pixie
70	h	#119	0	1	1	2	2	3	3	4	4	5	6	Troglodyte: Hatred Dmg-Sprite
71	S	+	0	0	0	0	1	1	1	1	1	1	1	Infernal Troglodyte: Speed R4
71	w	F	0	0	0	0	0	0	0	1	1	1	1	Infernal Troglodyte: Immune to Hostile Fire Spells R7
71	h	#118	0	1	1	2	2	3	3	4	4	5	6	Infernal Troglodyte: Hatred Dmg-Pixie
71	h	#119	0	1	1	2	2	3	3	4	4	5	6	Infernal Troglodyte: Hatred Dmg-Sprite
72	S	+	0	0	0	0	1	1	1	1	1	1	2	Harpy: Speed R4/R10
72	s	#51	0	0	0	0	1	1	1	2	2	2	2	Harpy: Fortune R4/R7
72	c	#42	0	5	10	15	20	25	30	35	40	45	50	Harpy: Curse 5%/Rank
73	S	+	0	0	0	0	1	1	1	1	1	1	2	Harpy Hag: Speed R4/R10
73	s	#51	0	0	0	0	1	1	1	2	2	2	2	Harpy Hag: Fortune R4/R7
73	c	#73	0	5	10	15	20	25	30	35	40	45	50	Harpy Hag: Disease 5%/Rank
74	S	+	0	0	0	0	1	1	1	1	1	1	1	Beholder: Speed R4
74	c	#61	0	5	10	15	20	25	30	35	40	45	50	Beholder: Forgetfulness 5%/Rank
74	o	+	0	0	0	0	0	0	0	1	1	1	1	Beholder: No Obstacle Penalty R7
75	S	+	0	0	0	0	1	1	1	1	1	1	2	Evil Eye: Speed R4/R10
75	w	m	0	0	0	0	0	0	0	1	1	1	1	Evil Eye: Immune to Hostile Mind Spells R7
76	S	+	0	0	0	0	1	1	1	1	1	1	1	Medusa: Speed R4
76	a	#70	0	0	0	5	5	10	10	15	20	25	30	Medusa: Petrify bonus R3/R5/R7/R8/R9/R10
76	O	+	0	1	1	1	2	2	2	3	3	3	4	"Medusa: Extra Shots +1/Three Ranks, +1 R10"
77	S	+	0	0	0	0	1	1	1	1	1	1	2	Medusa Queen: Speed R4/R10
77	i	+	0	0	0	0	0	0	0	1	1	1	1	Medusa Queen: No Range Penalty R7
77	O	+	0	1	1	1	2	2	2	3	3	3	4	"Medusa Queen: Extra Shots +1/3 Ranks, +1 R10"
78	S	+	0	0	0	0	1	1	1	1	1	1	2	Minotaur: Speed R4/R10
78	f	R	2	2	2	2	2	2	2	2	1	1	1	Minotaur: No Retaliation R8
78	b	=	0	4	8	12	16	20	24	28	32	36	40	Minotaur: Reduces Enemy Defence 4%/Rank
79	S	+	0	0	0	0	1	1	1	1	1	1	2	Minotaur King: Speed R4/R10
79	e	+	0	3	6	9	12	15	18	21	24	27	30	Minotaur King: Double Damage Death Blow 3%/Rank
79	s	#49	0	0	0	0	0	2	2	2	2	2	2	Minotaur King: Expert Mirth R5
80	S	+	0	0	0	0	1	1	1	1	1	1	2	Manticore: Speed R4/R10
80	R	+	0	0	0	0	0	1	1	1	1	1	2	Manticore: Extra Retaliations R5/R10
80	c	#71	0	5	10	15	20	25	30	35	40	45	50	Manticore: Poison 5%/Rank
81	S	+	0	0	0	0	1	1	2	2	2	2	3	Scorpicore: Speed R4/R6/R10
81	a	#74	0	0	0	0	0	5	5	10	10	15	20	Scorpicore: Paralyze bonus R5/R7/R9/R10
81	c	#80	0	5	10	15	20	25	30	35	40	45	50	Scorpicore: Acid Breath 5%/Rank
82	S	+	0	0	0	0	1	1	2	2	2	2	3	Red Dragon: Speed R4/R6/R10
82	h	#40	5	7	9	11	13	15	17	19	21	23	25	Red Dragon: Hatred Dmg-Giant +20%/Rank
82	h	#41	5	7	9	11	13	15	17	19	21	23	25	Red Dragon: Hatred Dmg-Titan +20%/Rank
82	f	f	0	0	0	0	0	1	1	1	1	1	1	Red Dragon: Fearless R5
82	w	0	0	0	0	0	0	0	0	0	1	1	1	Red Dragon: No Immunity to Friendly Spells R8
83	S	+	0	0	0	0	1	1	2	2	2	2	3	Black Dragon: Speed R4/R6/R10
83	h	#40	5	7	9	11	13	15	17	19	21	23	25	Black Dragon: Hatred Dmg-Giant +20%/Rank
83	h	#41	5	7	9	11	13	15	17	19	21	23	25	Black Dragon: Hatred Dmg-Titan +20%/Rank
83	F	+	0	0	0	0	0	0	0	0	1	1	1	Black Dragon: Fear R8
83	c	#78	0	5	10	15	20	25	30	35	40	45	50	Black Dragon: Dispel Beneficial 5%/Rank
83	f	f	0	0	0	0	0	1	1	1	1	1	1	Black Dragon: Fearless R5
83	w	0	0	0	0	0	0	0	0	0	1	1	1	Black Dragon: No Immunity to Friendly Spells R8
155	S	+	0	0	0	0	1	1	2	2	2	2	3	Darkness Dragon: Speed R4/R6/R10
155	h	#152	5	6	7	8	9	10	12	14	16	18	20	Darkness Dragon: Hatred Dmg-Lord of Thunder
155	f	R	0	0	0	0	0	0	0	1	1	1	1	Darkness Dragon: No Retaliation R7
155	c	#59	0	3	6	9	12	15	18	21	24	27	30	Darkness Dragon: Berserk on hit 3%/Rank
84	S	+	0	0	0	0	1	1	1	1	1	1	1	Goblin: Speed R4
84	f	D	2	2	2	2	2	2	2	1	1	1	1	Goblin: Double Strike R7
84	h	#16	0	1	2	3	4	5	5	5	5	5	5	Goblin: Hatred Dmg-Dwarf
84	h	#17	0	1	2	3	4	5	5	5	5	5	5	Goblin: Hatred Dmg-Battle Dwarf
85	S	+	0	0	0	0	1	1	1	1	1	1	2	Hobgoblin: Speed R4/R10
85	f	D	2	2	2	2	2	2	2	1	1	1	1	Hobgoblin: Double Strike R7
85	h	#16	0	1	2	3	4	5	5	5	5	5	5	Hobgoblin: Hatred Dmg-Dwarf
85	h	#17	0	1	2	3	4	5	5	5	5	5	5	Hobgoblin: Hatred Dmg-Battle Dwarf
86	S	+	0	0	0	0	1	1	1	1	1	1	2	Wolf Rider: Speed R4/R10
86	f	R	2	2	2	2	2	2	2	1	1	1	1	Wolf Rider: No Retaliation R7
87	S	+	0	0	0	0	1	1	1	1	1	1	2	Wolf Raider: Speed R4/R10
87	f	R	2	2	2	2	2	2	2	1	1	1	1	Wolf Raider: No Retaliation R7
88	S	+	0	0	0	0	1	1	1	1	1	1	1	Orc: Speed R4
88	f	D	2	2	2	2	2	1	1	1	1	1	1	Orc: Double Strike R5
88	i	=	0	0	0	0	0	0	0	0	0	1	1	Orc: No Range Penalty R9
88	h	#18	0	1	2	3	4	5	5	5	5	5	5	Orc: Hatred Dmg-Wood Elf
88	h	#19	0	1	2	3	4	5	5	5	5	5	5	Orc: Hatred Dmg-Grand Elf
89	S	+	0	0	0	0	1	1	1	1	1	1	1	Orc Chieftain: Speed R4
89	f	D	2	2	2	2	2	1	1	1	1	1	1	Orc Chieftain: Double Attack R5
89	i	=	0	0	0	0	0	0	0	0	0	1	1	Orc Chieftain: No Range Penalty R9
89	h	#18	0	1	2	3	4	5	5	5	5	5	5	Orc Chieftain: Hatred Dmg-Wood Elf
89	h	#19	0	1	2	3	4	5	5	5	5	5	5	Orc Chieftain: Hatred Dmg-Grand Elf
90	S	+	0	0	0	0	1	1	1	1	1	1	1	Ogre: Speed R4
90	L	#74	0	2	5	7	10	12	15	17	20	22	25	Ogre: Deflect 75% dmg. 2.5%/Rank to 25%
90	e	=	0	0	0	10	15	20	25	30	35	40	50	Ogre: Double Damage Death Blow (50% at R10)
91	S	+	0	0	0	0	1	1	1	1	1	1	1	Ogre Magi: Speed R4
91	L	#74	0	2	5	7	10	12	15	17	20	22	25	Ogre Magi: Deflect 75% dmg. 2.5%/Rank to 25%
91	p	#43	0	0	0	4	7	10	13	16	19	22	25	Ogre Magi: Mass Bloodlust pre-attack 3%/Rank R3
91	e	=	0	0	0	4	8	12	16	20	24	28	35	Ogre Magi: Double Damage Death Blow (35% at R10)
92	r	#100	0	9	18	27	36	45	54	63	72	81	90	Roc: Regeneration 9HP/Rank
92	a	#17	0	5	10	15	20	25	30	35	40	45	50	Roc: Lightning Bolt 5%/Rank
92	S	+	0	0	0	0	1	1	1	1	1	1	2	Roc: Speed R4/R10
93	r	#100	0	9	18	27	36	45	54	63	72	81	90	Thunderbird: Regeneration 9HP/Rank
93	a	#17	0	5	10	15	20	25	30	35	40	45	50	Thunderbird: Lightning Bolt 5%/Rank
93	S	+	0	0	0	0	1	1	2	2	2	2	3	Thunderbird: Speed R4/R6/R10
94	S	+	0	0	0	0	1	1	1	1	1	1	2	Cyclops: Speed R4/R10
94	o	=	0	0	0	0	0	1	1	1	1	1	1	Cyclops: No Obstacle Penalty R5
94	i	=	0	0	0	0	0	0	0	1	1	1	1	Cyclops: No Range Penalty R7
94	p	#14	0	10	20	30	40	50	60	60	60	60	60	Cyclops: Earthquake pre-attack 10%/Rank to 60%
95	S	+	0	0	0	0	1	1	1	1	1	1	2	Cyclops King: Speed R4/R10
95	o	=	0	0	0	0	0	1	1	1	1	1	1	Cyclops King: No Obstacle Penalty R5
95	i	=	0	0	0	0	0	0	0	1	1	1	1	Cyclops King: No Range Penalty R7
95	p	#14	0	10	20	30	40	50	60	60	60	60	60	Cyclops King: Earthquake pre-attack 10%/Rank to 60%
96	S	+	0	0	0	2	3	3	3	3	3	3	3	Behemoth: Speed R3/R4
96	F	=	0	0	0	0	0	1	1	1	1	1	1	Behemoth: Fear R5
96	f	D	2	2	2	2	2	2	2	1	1	1	1	Behemoth: Double Attack R7
96	w	E	0	0	0	0	0	1	1	1	1	1	1	Behemoth: Immune to Hostile Earth Spells R5
96	f	f	0	0	0	0	0	1	1	1	1	1	1	Behemoth: Fearless R5
96	w	B	0	0	0	0	0	0	0	0	1	1	1	Behemoth: Immune to Blind R8
97	S	+	0	0	0	2	3	3	3	2	3	3	4	Ancient Behemoth: Speed R3/R4/R7/R8/R10
97	F	=	0	0	0	0	0	1	1	1	1	1	1	Ancient Behemoth: Fear R5
97	f	D	2	2	2	2	2	2	2	1	1	1	1	Ancient Behemoth: Double Attack R7
97	w	E	0	0	0	0	0	1	1	1	1	1	1	Ancient Behemoth: Immune to Hostile Earth Spells R5
97	f	f	0	0	0	0	0	1	1	1	1	1	1	Ancient Behemoth: Fearless R5
97	w	B	0	0	0	0	0	0	0	0	1	1	1	Ancient Behemoth: Immune to Blind R8
156	S	+	0	0	0	2	3	3	4	4	4	4	5	Ghost Behemoth: +2 Extra Speed R3/R4/R6/R10
156	F	=	0	0	0	0	0	1	1	1	1	1	1	Ghost Behemoth: Fear R5
156	f	D	2	2	2	2	2	2	2	1	1	1	1	Ghost Behemoth: Double Attack R7
156	w	B	0	0	0	0	0	0	0	0	1	1	1	Ghost Behemoth: Immune to Blind R8
156	w	D	0	0	0	0	0	0	0	1	1	1	1	Ghost Behemoth: Immune to Direct Damage Spells R7
98	S	+	0	0	0	0	1	1	1	1	1	1	1	Gnoll: Speed: R4
98	s	#49	0	0	0	0	0	1	1	1	1	2	2	Gnoll: Mirth R5/R9
98	h	#14	0	2	4	6	8	10	12	14	16	18	20	Gnoll: Hatred Dmg-Centaur
99	S	+	0	0	0	0	1	1	1	1	1	1	1	Gnoll Marauder: Speed R4
99	s	#49	0	0	0	0	0	1	1	1	1	2	2	Gnoll Marauder: Mirth R5/R9
99	h	#15	0	2	4	6	8	10	12	14	16	18	20	Gnoll Marauder: Hatred Dmg-Centaur Captain
100	S	+	0	0	0	0	1	1	1	1	1	1	1	Lizardman: Speed R4
100	f	D	2	2	2	2	2	2	2	1	1	1	1	Lizardman: Double Strike R7
100	c	#71	0	5	10	15	20	25	30	35	40	45	50	Lizardman: Poison 5%/Rank
101	S	+	0	0	0	0	1	1	1	1	1	1	1	Lizard Warrior: Speed R4
101	f	D	2	2	2	2	2	2	2	1	1	1	1	Lizard Warrior: Double Strike R7
101	c	#71	0	5	10	15	20	25	30	35	40	45	50	Lizard Warrior: Poison 5%/Rank
104	H	+	0	1	2	4	5	7	8	10	11	13	14	Serpent Fly: Health
104	A	+	0	1	1	1	1	1	1	1	1	1	1	Serpent Fly: Attack R1
104	D	+	0	1	1	1	1	1	1	1	1	1	1	Serpent Fly: Defense R1
104	S	+	0	0	0	0	1	2	3	3	3	3	4	Serpent Fly: Speed R4/R5/R6/R10
104	f	A	2	2	2	2	2	2	2	1	1	1	1	Serpent Fly: Attack All Adjacent R7
104	R	+	0	0	0	0	0	1	1	2	2	3	4	Serpent Fly: Extra Retals R5/R7/R9/R10
105	H	+	0	1	2	4	5	7	8	10	11	13	14	Dragon Fly: Health
105	A	+	0	1	1	1	1	1	1	1	1	1	1	Dragon Fly: Attack R1
105	D	+	0	1	1	1	1	1	1	1	1	1	1	Dragon Fly: Defense R1
105	S	+	0	0	0	0	1	2	3	3	4	4	5	Dragon Fly: Speed R4/R5/R6/R8/R10
105	f	A	2	2	2	2	2	2	2	1	1	1	1	Dragon Fly: Attack All Adjacent R7
105	R	+	0	0	0	0	0	1	1	2	2	3	4	Dragon Fly: Extra Retals R5/R7/R9/R10
106	S	+	0	0	0	0	1	1	1	1	1	1	1	Basilisk: Speed R4
106	a	#70	0	3	6	9	12	15	18	21	24	27	30	Basilisk: Petrification +3%/Rank
107	S	+	0	0	0	0	1	1	1	1	1	1	2	Greater Basilisk: Speed R4/R10
107	a	#70	0	3	6	9	12	15	18	21	24	27	30	Greater Basilisk: Petrification +3%/Rank
102	S	+	0	0	0	0	1	1	1	1	1	1	1	Gorgon: Speed R4
102	f	D	2	2	2	2	2	2	2	1	1	1	1	Gorgon: Double Strike R7
102	F	=	0	0	0	0	0	1	1	1	1	1	1	Gorgon: Fear R5
103	S	+	0	0	0	0	1	1	1	1	1	1	2	Mighty Gorgon: Speed R4/R10
103	E	=	10	13	16	19	22	25	28	31	34	37	40	Mighty Gorgon: Death Stare +3%/Rank
103	F	=	0	0	0	0	0	1	1	1	1	1	1	Mighty Gorgon: Fear R5
108	D	+	0	1	1	1	1	2	2	2	2	3	3	Wyvern: Defense R1/R5/R9
108	S	+	0	0	0	0	1	2	3	3	4	4	5	Wyvern: Speed R4/R5/R6/R8/R10
108	c	#71	0	5	10	15	20	25	35	45	55	65	75	Wyvern: Poison
109	D	+	0	1	1	1	1	2	2	2	2	3	3	Wyvern Monarch: Defense R1/R5/R9
109	S	+	0	0	1	1	2	3	4	4	5	5	6	Wyvern Monarch: Speed R2/R4/R5/R6/R8/R10
109	c	#71	0	5	10	15	20	25	35	45	55	65	75	Wyvern Monarch: Poison
110	D	+	0	1	1	2	2	3	3	4	4	4	4	Hydra: Defense R1/R3/R5/R7
110	S	+	0	0	0	0	1	2	3	3	4	4	4	Hydra: Speed R4/R5/R6/R8
110	d	+	0	4	8	12	16	20	24	28	32	36	40	Hydra: Defending Bonus +4/Rank
110	L	#49	0	5	10	15	20	25	30	35	40	45	50	Hydra: Deflect 50% Damage 5%/Rank
110	R	+	0	0	0	0	0	1	1	2	2	3	4	Hydra: Extra Retals R5/R7/R9/R10
110	w	1	0	0	0	1	1	1	1	1	1	1	1	Hydra: Immune to Hostile L1 Spells R3
110	w	B	0	0	0	0	0	0	1	1	1	1	1	Hydra: Immune to Blind R6
110	f	f	0	0	0	0	0	1	1	1	1	1	1	Hydra: Fearless R5
111	D	+	0	1	1	2	2	3	3	4	4	4	4	Chaos Hydra: Defense R1/R3/R5/R7
111	S	+	0	0	1	1	2	2	3	3	4	4	5	Chaos Hydra: Speed R2/R4/R6/R8/R10
111	d	+	0	4	8	12	16	20	24	28	32	36	40	Chaos Hydra: Defending Bonus +4/Rank
111	L	#49	0	5	10	15	20	25	30	35	40	45	50	Chaos Hydra: Deflect 50% Damage 5%/Rank
111	R	+	0	0	0	0	0	1	1	2	2	3	4	Chaos Hydra: Extra Retals R5/R7/R9/R10
111	w	1	0	0	0	1	1	1	1	1	1	1	1	Chaos Hydra: Immune to Hostile L1 Spells R3
111	w	B	0	0	0	0	0	0	1	1	1	1	1	Chaos Hydra: Immune to Blind R6
111	f	f	0	0	0	0	0	1	1	1	1	1	1	Chaos Hydra: Fearless R5
157	D	+	0	1	1	2	2	3	3	4	4	4	4	Hell Hydra: Defense R1/R3/R5/R7
157	S	+	0	0	1	1	2	2	4	4	5	5	6	Hell Hydra: Speed R2/R4/R6/R8/R10
157	d	+	0	4	8	12	16	20	24	28	32	36	40	Hell Hydra: Defending Bonus +4/Rank
157	L	#49	0	5	10	15	20	25	30	35	40	45	50	Hell Hydra: Deflect 50% Damage 5%/Rank
157	R	+	0	0	0	0	0	1	1	2	2	3	4	Hell Hydra: Extra Retals R5/R7/R9/R10
157	s	#29	0	0	0	1	1	2	2	3	3	3	3	Hell Hydra: Fire Shield R3/R5/R7
157	w	F	0	0	1	1	1	1	1	1	1	1	1	Hell Hydra: Immune to Hostile Fire Spells R2
157	w	1	0	0	0	1	1	1	1	1	1	1	1	Hell Hydra: Immune to Hostile L1 Spells R3
118	S	+	0	0	0	0	1	1	1	1	1	1	2	Pixie: Speed R4/R10
118	c	#47	0	20	25	30	35	40	45	50	55	60	65	Pixie: Disrupting Ray
118	h	#56	0	0	0	0	0	0	1	2	3	4	5	Pixie: Hatred Dmg-Skeleton
118	W	+	0	2	4	6	8	10	12	14	16	18	20	Pixie: Resistance 2%/Rank
119	S	+	0	0	0	0	1	1	1	1	1	1	2	Sprite: Speed R4/R10
119	h	#56	0	0	0	0	0	0	1	2	3	4	5	Sprite: Hatred Dmg-Skeleton 
119	h	#57	0	0	0	0	0	0	1	2	3	4	5	Sprite: Hatred Dmg-Skeleton Warrior
119	W	+	0	2	4	6	8	10	12	14	16	18	20	Sprite: Resistance 2%/Rank
112	S	+	0	0	0	0	1	1	1	1	1	1	2	Air Elemental: Speed R4/R10
112	f	F	2	2	2	1	1	1	1	1	1	1	1	Air Elemental: Fly R3
112	w	L	0	0	0	0	0	1	1	1	1	1	1	Air Elemental: Immune to Lightning R5
112	s	#28	0	1	1	1	2	2	2	2	5	5	5	"Air Elemental: Air Shield, Mass at R8"
127	S	+	0	0	0	0	1	1	1	1	1	1	2	Storm Elemental: Speed R4/R10
127	s	#30	0	1	1	1	1	2	2	2	2	3	5	"Storm Elemental: Protection from Air, Mass at R10"
127	g	%	0	2	4	6	8	10	12	14	16	18	20	Storm Elemental: Reduce Spell Damage 2%/Rank
115	S	+	0	0	0	1	1	1	1	1	1	1	1	Water Elemental: Speed R4
115	w	O	0	0	0	0	0	1	1	1	1	1	1	Water Elemental: Immune Fire Dmg (not Magic Arrow) R5
115	s	#41	0	0	1	1	1	2	2	2	5	5	5	"Water Elemental: Bless, Mass at R8"
123	S	+	0	0	0	1	1	1	1	1	1	1	2	Ice Elemental: Speed R4/R10
123	p	#16	0	1	2	3	4	5	6	7	8	9	10	Ice Elemental: 1% Ice Bolt/Rank
123	s	#31	0	0	0	1	1	1	2	2	2	3	5	"Ice Elemental: Protection from Fire, Mass at R10"
114	S	+	0	0	0	1	1	1	1	1	1	1	2	Fire Elemental: Speed R4/R10
114	f	F	2	2	2	1	1	1	1	1	1	1	1	Fire Elemental: Fly R3
114	s	#29	0	1	1	1	2	2	2	3	3	3	3	Fire Elemental: Fire Shield Expert R7
114	w	C	0	0	0	0	0	1	1	1	1	1	1	Fire Elemental: Immune to Cold Spells R5
114	w	W	0	0	0	0	0	0	0	0	1	1	1	Fire Elemental: Immune to Hostile Water Spells R6
114	w	0	0	0	0	0	0	0	0	0	0	0	1	Fire Elemental: No Immune Friendly Fire Spells R9
129	S	+	0	0	0	0	1	1	1	1	1	1	2	Energy Elemental: Speed R4/R10
129	s	#29	0	1	1	1	1	2	2	2	3	3	3	Energy Elemental: Fire Shield Expert R8
129	s	#32	0	1	1	1	2	2	2	3	3	5	5	"Energy Elemental: Prot. from Water, Mass at R9"
129	w	0	0	0	0	0	0	0	0	0	0	0	1	Energy Elemental: No Immune Friendly Fire Spells R10
113	S	+	0	0	0	0	1	1	1	1	1	1	1	Earth Elemental: Speed R4
113	s	#33	0	0	1	1	1	2	2	5	5	5	5	"Earth Elemental: Protection from Earth, Mass at R7"
113	w	M	0	0	0	0	0	1	1	1	1	1	1	Earth Elemental: Immune to Meteor Shower at R5
113	w	S	0	0	0	0	0	0	1	1	1	1	1	Earth Elemental: Immune to Slow at R6
113	w	I	0	0	0	0	0	0	0	0	1	1	1	Earth Elemental: Immunity to Implosion at R8
113	W	+	0	2	4	6	8	10	11	12	13	14	15	"Earth Elemental: Magic Resist 2%/Rnk 1-5, 1%/Rnk 6-10"
125	S	+	0	0	0	0	1	1	1	1	1	1	2	Magma Elemental: Speed R4/R10
125	u	#113	0	10	20	30	40	50	60	70	80	90	100	Magma Elemental: Summon Earth Elementals 10%/Rank
125	w	S	0	0	0	0	0	0	0	1	1	1	1	Magma Elemental: Immune to Slow at R7
125	g	%	0	3	6	9	12	15	18	21	24	27	30	Magma Elemental: Reduce Spell Damage 3%/Rank
120	S	+	0	0	0	0	1	1	1	1	1	1	2	Psychic Elemental: Speed R4/R10
120	c	#60	0	2	4	6	8	10	12	14	16	18	20	Psychic Elemental: Hypnotize 2%/Rank
120	W	+	0	2	4	6	8	10	12	14	16	18	20	Psychic Elemental: Magic Resistance 2%/Rank
121	S	+	0	0	0	0	1	1	1	1	1	1	2	Magic Elemental: Speed R4/R10
121	R	+	0	0	0	0	0	1	1	1	1	2	2	Magic Elemental: Extra Retaliations R5/R9
121	w	0	0	0	0	0	0	0	0	0	0	1	1	Magic Elemental: No Immune Beneficial Spells at L9
121	C	+	0	1	1	1	2	2	2	3	3	3	4	Magic Elemental: Mana Reduction R1/R4/R7/R10
130	S	+	0	0	0	0	1	1	2	2	2	2	3	Firebird: Speed R4/R6/R10
130	s	#49	0	1	1	2	2	2	3	3	3	6	6	Firebird: Mirth: +1 approx. every 3 Ranks
130	s	#29	0	1	1	2	2	3	3	3	6	6	6	"Firebird: Fire Shield, Mass at R8"
130	f	f	0	0	0	0	0	1	1	1	1	1	1	Firebird: Fearless R5
131	S	+	0	0	0	0	1	1	2	2	2	2	3	Phoenix: Speed R4/R6/R10
131	R	+	0	0	0	0	0	1	1	1	1	1	2	Phoenix: Extra Retaliation R5/R10
131	s	#29	0	1	1	1	1	2	2	2	3	3	6	"Phoenix: Fire Shield, Mass at R10"
131	P	+	0	0	0	0	0	0	0	0	0	0	1	Phoenix: Extra Rebirth R10
131	f	f	0	0	0	0	0	1	1	1	1	1	1	Phoenix: Fearless R5
131	g	%	0	2	4	6	8	10	12	14	16	18	20	Phoenix: Reduce Damage 2%/Rank
158	S	+	0	0	0	0	1	1	2	2	2	2	3	Sacred Phoenix: Speed R4/R6/R10
158	R	+	0	0	0	0	0	1	1	1	1	1	2	Sacred Phoenix: Extra Retaliation R5/R10
158	P	+	0	0	0	1	1	1	1	2	2	2	3	Sacred Phoenix: Extra Rebirths R3/R7/R10
158	w	H	0	0	0	0	0	0	0	0	1	1	1	Sacred Phoenix: Immune to Hypnotize R8
158	f	f	2	2	2	2	2	1	1	1	1	1	1	Sacred Phoenix: Fearless R5
116	S	+	0	0	0	0	1	1	1	1	1	1	1	Gold Golem: Speed R4
116	f	R	2	2	2	2	2	1	1	1	1	1	1	Gold Golem: No Retaliation R5
116	g	%	85	87	89	91	93	95	97	99	100	100	100	Gold Golem: Reduced Spell Damage +2%/Rank
117	S	+	0	0	0	0	1	1	1	1	1	1	1	Diamond Golem: Speed R4
117	f	R	2	2	2	2	2	1	1	1	1	1	1	Diamond Golem: No Retaliation R5
117	g	%	95	96	97	98	99	100	100	100	100	100	100	Diamond Golem: Reduced Spell Damage +1%/Rank
132	S	+	0	0	0	0	1	1	2	2	2	2	3	Azure Dragon: Speed R4/R6/R10
132	U	#123	0	20	40	60	80	100	120	140	160	180	200	Azure Dragon: Summon 20%/Rank Ice Elementals
132	w	4	0	0	0	0	0	1	1	1	1	1	1	Azure Dragon: Immune to Hostile L4 Spells R5
132	w	5	0	0	0	0	0	0	0	1	1	1	1	Azure Dragon: Immune to Hostile L5 Spells R7
132	w	0	0	0	0	0	0	0	0	0	1	1	1	Azure Dragon: No Immunity to Friendly Spells R8
133	S	+	0	0	0	0	1	1	2	2	2	2	3	Crystal Dragon: Speed R4/R6/R10
133	b	=	0	3	6	9	12	15	18	21	24	27	30	Crystal Dragon: Reduce Defense 3%/Rank
133	f	R	2	2	2	2	2	2	2	2	2	1	1	Crystal Dragon: No Retaliation R9
133	f	P	2	2	2	2	2	2	2	2	1	1	1	Crystal Dragon: Immune to Mind Spells R8
133	f	f	0	0	0	0	0	1	1	1	1	1	1	Crystal Dragon: Fearless R5
133	W	+	0	3	6	9	12	15	18	21	24	27	30	Crystal Dragon: Resistance +3%/Rank
134	S	+	0	0	0	0	1	1	2	2	2	2	3	Faerie Dragon: Speed R4/R6/R10
134	B	=	0	5	10	15	20	25	25	25	25	25	25	Faerie Dragon: Block 5%/Rank to 25%
134	p	#65	0	5	10	15	20	25	30	35	40	45	50	Faerie Dragon: Clone Target 5%/Rank
134	s	#36	0	1	1	1	2	2	2	3	3	4	4	"Faerie Dragon: Magic Mirror, Mass at R9"
134	f	f	0	0	0	0	0	1	1	1	1	1	1	Faerie Dragon: Fearless R5
135	S	+	0	0	0	0	1	1	2	2	2	2	3	Rust Dragon: Speed R4/R6/R10
135	h	#102	0	0	0	2	3	4	5	6	7	8	9	Rust Dragon: Hatred Dmg-Gorgon
135	h	#103	0	0	0	2	3	4	5	6	7	8	9	Rust Dragon: Hatred Dmg-Mighty Gorgon
135	r	#50	0	0	0	0	25	50	75	125	250	250	250	Rust Dragon: Regenerate 50% R4..R10
135	w	m	0	0	0	0	0	0	0	0	1	1	1	Rust Dragon: Immune to Hostile Mind Spells R8
135	f	f	0	0	0	0	0	1	1	1	1	1	1	Rust Dragon: Fearless R5
136	S	+	0	0	0	0	1	1	1	1	1	1	2	Enchanter: Speed R4/R10
136	l	#35	0	5	10	15	20	25	0	0	0	0	0	Enchanter: Summon Clones of Arch Mage
136	l	#136	0	0	0	0	0	0	15	20	25	30	35	Enchanter: Summon Clones of Enchanter
136	w	1	0	0	0	0	1	1	1	1	1	1	1	Enchanter: Immune to Hostile L1 Spells R4
136	w	2	0	0	0	0	0	0	1	1	1	1	1	Enchanter: Immune to Hostile L2 Spells R6
136	w	3	0	0	0	0	0	0	0	0	1	1	1	Enchanter: Immune to Hostile L3 Spells R8
136	w	4	0	0	0	0	0	0	0	0	0	0	1	Enchanter: Immune to Hostile L4 Spells R10
137	S	+	0	0	0	0	1	1	1	1	1	1	2	Sharpshooter: Speed R4/R10
137	f	s	0	0	0	0	0	0	0	1	1	1	1	Sharpshooter: Unblockable Shooter R7
138	S	+	0	0	0	0	1	1	1	1	1	1	1	Halfling: Speed R4
138	s	#55	0	0	0	1	1	1	2	2	2	3	3	Halfling: Slayer R3/R6/R9
138	f	f	0	0	0	0	0	0	0	1	1	1	1	Halfling: Fearless R7
138	h	#84	0	1	2	3	4	5	6	7	8	9	10	Halfling: Hatred Dmg-Goblin
138	h	#85	0	1	2	3	4	5	6	7	8	9	10	Halfling: Hatred Dmg-Hobgoblin
139	S	+	0	0	0	0	1	1	1	1	1	1	1	Peasant: Speed R4
139	U	#139	0	10	20	30	40	50	60	70	80	90	100	Peasant: Summon 10%/Rank Peasants every 4 rounds
140	S	+	0	0	0	0	1	1	1	1	1	1	2	Boar: Speed R4/R10
140	f	c	0	0	0	1	1	1	1	1	1	1	1	Boar: Champion Charge R3
140	c	#73	0	5	10	15	20	25	30	35	40	45	50	Boar: Disease 5%/Rank
141	S	+	0	0	0	0	1	1	1	1	1	1	1	Mummy: Speed R4
141	a	#42	0	2	4	6	8	10	12	14	16	18	20	Mummy: Mass Curse post-attack 2%/Rank
141	g	%	0	3	6	9	12	15	18	21	24	27	30	Mummy: Reduce Spell Damage 3%/Rank
142	S	+	0	0	0	0	1	1	1	1	1	1	2	Nomad: Speed R4/R10
142	f	b	0	0	0	1	1	1	1	1	1	1	1	Nomad: Strike & Return R3
142	f	c	0	0	0	0	0	0	0	1	1	1	1	Nomad: Champion Charge R7
143	S	+	0	0	0	0	1	1	1	1	1	1	2	Rogue: Speed R4/R10
143	f	R	2	2	2	2	2	1	1	1	1	1	1	Rogue: No Retaliation R5
143	c	#71	0	0	0	0	0	0	0	20	30	40	50	Rogue: Poison R7/R8/R9/R10
144	S	+	0	0	0	0	1	1	1	1	1	1	2	Troll: Speed R4/R10
144	f	r	0	0	0	1	1	1	1	1	1	1	1	Troll: Phoenix Rebirth R3
144	P	+	0	0	0	1	1	1	1	2	2	2	3	Troll: # of Rebirths R3/R7/R10
159	H	+	0	0	0	0	0	0	0	0	0	0	0	Ghost: No Health Bonus
159	S	+	0	0	0	0	1	1	1	1	1	1	2	Ghost: Speed R4/R10
159	c	#50	0	5	10	15	20	25	30	35	40	45	50	Ghost: Sorrow post-attack 5%/Rank
159	w	S	0	0	0	0	1	1	1	1	1	1	1	Ghost: Immune to Slow R4
160	A	+	0	0	0	0	0	0	0	0	0	0	0	Emissary of War: No Attack Bonus
160	M	+	0	0	0	0	0	0	0	0	0	0	0	Emissary of War: No Maximum Damage Bonus
160	m	+	0	0	0	0	0	0	0	0	0	0	0	Emissary of War: No Minimum Damage Bonus
160	S	+	0	0	0	0	1	1	1	1	1	1	1	Emissary of War: Speed R4
160	s	#43	0	0	0	0	0	4	4	4	4	4	4	Emissary of War: Mass Bloodlust R5
160	s	#56	0	0	0	0	0	0	0	0	0	0	4	Emissary of War: Mass Frenzy R10
161	A	+	0	0	0	0	0	0	0	0	0	0	0	Emissary of Peace: No Attack Bonus
161	M	+	0	0	0	0	0	0	0	0	0	0	0	Emissary of Peace: No Maximum Damage Bonus
161	m	+	0	0	0	0	0	0	0	0	0	0	0	Emissary of Peace: No Minimum Damage Bonus
161	S	+	0	0	0	0	1	1	1	1	1	1	1	Emissary of Peace: Speed R4
161	s	#27	0	0	0	0	0	4	4	4	4	4	4	Emissary of Peace: Mass Shield R5
161	s	#28	0	0	0	0	0	0	0	0	0	0	4	Emissary of Peace: Mass Air Shield R10
162	A	+	0	0	0	0	0	0	0	0	0	0	0	Emissary of Mana: No Attack Bonus
162	M	+	0	0	0	0	0	0	0	0	0	0	0	Emissary of Mana: No Maximum Damage Bonus
162	m	+	0	0	0	0	0	0	0	0	0	0	0	Emissary of Mana: No Minimum Damage Bonus
162	S	+	0	0	0	0	1	1	1	1	1	1	1	Emissary of Mana: Speed R4
162	C	+	0	0	1	1	2	2	3	3	4	4	5	Emissary of Mana: Reduce Mana R2/R4/R6/R8/R10
163	A	+	0	0	0	0	0	0	0	0	0	0	0	Emissary of Lore: No Attack Bonus
163	M	+	0	0	0	0	0	0	0	0	0	0	0	Emissary of Lore: No Maximum Damage Bonus
163	m	+	0	0	0	0	0	0	0	0	0	0	0	Emissary of Lore: No Minimum Damage Bonus
163	S	+	0	0	0	0	1	1	1	1	1	1	1	Emissary of Lore: Speed R4
163	C	+	0	0	1	1	2	2	3	3	4	4	5	Emissary of Lore: Reduce Mana R2/R4/R6/R8/R10
164	S	+	0	0	0	0	1	1	1	1	1	1	1	Fire Messenger: Speed R4
164	k	#13	0	5	10	15	20	25	30	35	40	45	50	Fire Messenger: Fire Wall post-attack 5%/Rank
164	p	#66	0	2	4	6	8	10	12	14	16	18	20	Fire Messenger: Summon Fire Elemental 2%/Rank
165	S	+	0	0	0	0	1	1	1	1	1	1	1	Earth Messenger: Speed R4
165	a	#10	0	5	10	15	20	25	30	35	40	45	50	Earth Messenger: Quicksand post-attack 5%/Rank
165	p	#67	0	2	4	6	8	10	12	14	16	18	20	Earth Messenger: Summon Earth Elemental 2%/Rank
166	S	+	0	0	0	0	1	1	1	1	1	1	2	Air Messenger: Speed R4/R10
166	c	#47	0	5	10	15	20	25	30	35	40	45	50	Air Messenger: Disrupting Ray 5%/Rank
166	p	#69	0	2	4	6	8	10	12	14	16	18	20	Air Messenger: Summon Air Elemental 2%/Rank
167	S	+	0	0	0	0	1	1	1	1	1	1	1	Water Messenger: Speed R4
167	a	#16	0	5	10	15	20	25	30	35	40	45	50	Water Messenger: Ice Bolt post-attack 5%/Rank
167	p	#68	0	2	4	6	8	10	12	14	16	18	20	Water Messenger: Summon Water Elemental 2%/Rank
168	S	+	0	0	0	0	1	1	1	1	1	1	2	Gorynych: Speed R4/R10
168	f	D	2	2	2	2	2	2	2	1	1	1	1	Gorynych: Strike Twice R7
168	r	#100	0	0	0	0	0	50	50	50	50	50	50	Gorynych: Regeneration-50 50% R5
168	h	#26	0	0	0	0	0	0	1	2	3	4	5	Gorynych: Hatred Dmg-Green Dragon (50% at R10)
168	f	f	0	0	0	0	0	1	1	1	1	1	1	Gorynych: Fearless R5
169	S	+	0	0	0	0	1	1	1	1	1	1	2	War Zealot: Speed R4/R10
169	w	N	0	0	0	0	0	0	0	0	0	1	1	War Zealot: Immune to Dispel Beneficial Spells R9
169	w	m	0	0	0	0	0	0	1	1	1	1	1	War Zealot: Immune to Hostile Mind Spells R6
169	i	=	0	0	0	0	0	0	0	0	1	1	1	War Zealot: No Range Penalty R8
169	f	D	2	2	2	2	2	2	2	1	1	1	1	War Zealot: Shoot Twice R7
169	h	#64	0	0	0	0	0	0	1	2	3	4	5	War Zealot: Hatred Dmg-Lich (50% at R10)
169	h	#65	0	0	0	0	0	0	1	2	3	4	5	War Zealot: Hatred Dmg-Power Lich (50% at R10)
170	S	+	0	0	0	0	1	1	1	1	1	1	2	Arctic Sharpshooter: Speed R4/R10
170	f	s	0	0	0	0	0	0	0	1	1	1	1	Arctic Sharpshooter: Unblockable Shooter R7
170	w	C	0	0	0	1	1	1	1	1	1	1	1	Arctic Sharpshooter: Immune to Cold Spells R3
171	S	+	0	0	0	0	1	1	1	1	1	1	2	Lava Sharpshooter: Speed R4/R10
171	f	s	0	0	0	0	0	0	0	1	1	1	1	Lava Sharpshooter: Unblockable Shooter R7
171	w	F	0	0	0	1	1	1	1	1	1	1	1	Lava Sharpshooter: Immune Hostile Fire Spells R3
172	S	+	0	0	0	0	1	1	1	1	1	1	2	Nightmare: Speed R4/R10
172	E	=	10	12	14	16	18	20	22	24	26	28	30	Nightmare: Death Stare +2%/Rank
172	R	+	0	0	0	0	0	1	1	1	1	1	2	Nightmare: Retaliate Twice at R10
172	F	=	0	0	0	0	0	0	0	1	1	1	1	Nightmare: Fear R7
172	p	#24	0	5	10	15	20	25	30	35	40	45	50	Nightmare: Death Ripple pre-attack 5%/Rank
173	S	+	0	0	0	0	1	1	1	1	1	1	1	Santa Gremlin: Speed R4
173	G	%	0	10	20	30	40	5	10	20	30	40	50	Santa Gremlins: Bonus Guards 10%/Rank
173	G	=	1	1	1	1	1	1	1	1	1	1	1	Santa Gremlins: Upgraded Guards R5
193	S	+	0	0	0	0	1	1	1	1	1	1	2	Sorceress: Speed R4/R10
193	p	#65	0	5	10	15	20	25	30	35	40	45	50	Sorceress: Clone Target pre-attack 5%/Rank
193	u	#136	0	2	4	6	8	10	12	14	16	18	20	Sorceress: Summon 2%/Rank Enchanters round 2
194	S	+	0	0	0	0	1	1	1	1	1	1	2	Werewolf: Speed R4/R10
194	r	#50	0	4	8	12	16	20	24	28	32	36	40	Werewolf: 50% chance of Regenerating 4 HP/Rank
194	h	#4	0	1	2	3	4	5	6	7	8	9	10	Werewolf: Hatred Dmg-Griffin +10%/Rank
194	h	#5	0	1	2	3	4	5	6	7	8	9	10	Werewolf: Hatred Dmg-Royal Griffin +10%/Rank
194	h	#92	0	1	2	3	4	5	6	7	8	9	10	Werewolf: Hatred Dmg-Roc +10%/Rank
194	h	#93	0	1	2	3	4	5	6	7	8	9	10	Werewolf: Hatred Dmg-Thunderbird +10%/Rank
195	S	+	0	0	0	0	1	1	1	1	1	1	2	Hell Steed: Speed R4/R10
195	f	f	0	0	0	0	0	1	1	1	1	1	1	Hell Steed: Fearless at R5
195	a	#21	0	5	10	15	20	25	30	35	40	45	50	Hell Steed: Fireball after attack 5%/Rank
195	w	0	0	0	0	0	0	1	1	1	1	1	1	Hell Steed: No Beneficial Spell Immunity R5
174	S	+	0	0	0	0	1	1	1	2	2	2	3	Paladin Monster: Speed R4/R7/R10
174	W	+	0	20	25	30	35	40	45	50	55	60	65	Paladin Monster: Magic Resist 20% R1+5%/Rank
174	f	c	2	1	1	1	1	1	1	1	1	1	1	Paladin Monster: Champion Charge R1
174	L	140	0	0	0	0	20	25	30	35	40	45	50	Paladin Monster: 40% to Deflect 20-50% Dmg R4
174	f	D	2	2	2	2	2	2	2	1	1	1	1	Paladin Monster: Strike Twice R7
174	f	R	2	2	2	2	2	2	2	2	2	2	1	Paladin Monster: No Retaliation R10
175	S	+	0	0	0	0	1	1	1	2	2	2	3	Hierophant Monster: Speed R4/R7/R10
175	W	+	0	20	25	30	35	40	45	50	55	60	65	Hierophant Monster: Magic Resist 20% R1+5%/Rank
175	w	m	0	1	1	1	1	1	1	1	1	1	1	Hierophant Monster: Immune to Hostile Mind Spells R1
175	r	100	0	0	0	0	50	60	70	80	90	100	110	Hierophant Monster: Regeneration 100% chance R4
175	a	#37	0	0	0	0	0	0	0	70	80	90	100	Hierophant Monster: Mass Cure after-att. 70%-100% R7
175	p	#48	0	10	20	30	40	50	60	70	80	90	100	Hierophant Monster: Mass Prayer pre-attack 10%/Rank
176	S	+	0	0	0	0	1	1	1	2	2	2	3	Temple Guardian Monster: Speed R4/R7/R10
176	W	+	0	20	25	30	35	40	45	50	55	60	65	Temple Guardian Monster: Magic Resist 20% R1+5%/Rank
176	p	#44	0	10	20	30	40	50	60	70	80	90	100	Temple Guardian: Mass Precision pre-att. 10%/Rank
176	C	+	0	0	0	0	1	1	2	2	3	3	4	Temple Guardian: Reduce Casting Cost R4/6/9/10
176	a	#28	0	0	0	0	0	0	0	20	40	60	80	Temple Guardian: Air Shield after-att. R7 20%/Rank
176	w	3	0	0	0	0	0	0	0	0	0	0	1	Temple Guardian: Immune to hostile L1-L3 Spells R10
177	S	+	0	0	0	0	1	1	1	2	2	2	3	Succubus Monster: Speed R4/R7/R10
177	W	+	0	20	25	30	35	40	45	50	55	60	65	Succubus Monster: Magic Resist 20% R1+5%/Rank
177	f	F	2	1	1	1	1	1	1	1	1	1	1	Succubus Monster: Flying R1
177	s	#29	0	0	0	0	1	1	2	2	3	3	3	Succubus Monster: Fire Shield R4
177	a	#60	0	0	0	0	0	0	0	25	30	35	40	Succubus Monser: Hypnotize after-attack 25%-40% R7
177	U	#48	0	0	0	0	0	0	0	0	0	0	100	"Succubus Monster: Summon Mult. Demons, Num=100% R10"
178	S	+	0	0	0	0	1	1	1	2	2	2	3	Soul Eater Monster: Speed R4/R7/R10
178	W	+	0	20	25	30	35	40	45	50	55	60	65	Soul Eater Monster: Magic Resist 20% R1+5%/Rank
178	f	U	1	1	1	1	1	1	1	1	1	1	1	Soul Eater Monster: Undead R0
178	f	M	1	1	1	1	1	1	1	1	1	1	1	Soul Eater Monster: No Morale R0
178	f	P	1	1	1	1	1	1	1	1	1	1	1	Soul Eater Monster: Immune to Mind Spells R0
178	F	=	2	2	2	2	1	1	1	1	1	1	1	Soul Eater Monster: Fear R4
178	p	#24	0	0	0	0	0	0	0	10	20	30	40	Soul Eater: Death Ripple pre-attack 10%-40% R7
179	S	+	0	0	0	0	1	1	1	2	2	2	3	Brute Monster: Speed R4/R7/R10
179	W	+	0	20	25	30	35	40	45	50	55	60	65	Brute Monster: Magic Resist 20% R1+5%/Rank
179	f	f	2	1	1	1	1	1	1	1	1	1	1	Brute Monster: Fearless R1
179	s	#43	0	0	0	0	1	1	2	2	3	3	3	Brute Monster: Enchanted with Bloodlust R4/6/8/10
179	B	+	0	0	0	0	0	0	0	10	20	30	40	Brute Monster: Block 10%-40% R7
179	f	R	2	2	2	2	2	2	2	2	2	2	1	Brute Monster: No Retaliation R10
180	S	+	0	0	0	0	1	1	1	2	2	2	3	Ogre Leader Monster: Speed R4/R7/R10
180	W	+	0	20	25	30	35	40	45	50	55	60	65	Ogre Leader Monster: Magic Resist 20% R1+5%/Rank
180	f	m	0	1	1	1	1	1	1	1	1	1	1	Ogre Leader Monster: Always Positive Morale R1
180	c	#71	0	0	0	0	20	30	40	50	60	70	80	Ogre Leader Monster: Poison 20%-80% R4
180	e	+	0	0	0	0	0	0	0	10	20	30	40	Ogre Leader Monster: 2xDmg Deathblow 10%-40% R7
180	f	D	2	2	2	2	2	2	2	2	2	2	1	Ogre Leader Monster: Strike Twice R10
181	S	+	0	0	0	0	1	1	1	2	2	2	3	Shaman Monster: Speed R4/R7/R10
181	W	+	0	20	25	30	35	40	45	50	55	60	65	Shaman Monster: Magic Resist 20% R1+5%/Rank
181	U	#104	0	50	50	50	0	0	0	0	0	0	0	Shaman Monster: Summon Mult. Serpent Fly Num=50% R1
181	U	#106	0	0	0	0	50	50	50	0	0	0	0	Shaman Monster: Summon Mult. Basilisks Num=50% R4
181	U	#102	0	0	0	0	0	0	0	50	50	0	0	Shaman Monster: Summon Mult. Gorgons Num=50% R7
181	U	#108	0	0	0	0	0	0	0	0	0	50	50	Shaman Monster: Summon Mult. Wyverns Num=50% R9
181	f	r	0	0	0	0	0	0	0	0	0	0	1	Shaman Monster: Rebirth R10
182	S	+	0	0	0	0	1	1	1	2	2	2	3	Astral Spirit Monster: Speed R4/R7/R10
182	W	+	0	20	25	30	35	40	45	50	55	60	65	Astral Spirit Monster: Magic Resist 20% R1+5%/Rank
182	f	M	1	1	1	1	1	1	1	1	1	1	1	Astral Spirit Monster: No Morale R0
182	f	F	2	1	1	1	1	1	1	1	1	1	1	Astral Spirit Monster: Flying R1
182	a	#58	0	0	0	0	10	20	30	40	50	60	70	Astral Spirit: Mass Counterstrike 10%-70% R4
182	f	A	2	2	2	2	2	2	2	1	1	1	1	Astral Spirit Monster: Attack All Around R7
182	f	b	0	0	0	0	0	0	0	0	0	0	1	Astral Spirit Monster: Strike & Return R10
183	S	+	0	0	0	0	1	1	1	2	2	2	3	Paladin Monster: Speed R4/R7/R10
183	W	+	0	20	25	30	35	40	45	50	55	60	65	Paladin Monster: Magic Resist 20% R1+5%/Rank
183	f	c	2	1	1	1	1	1	1	1	1	1	1	Paladin Monster: Champion Charge R1
183	L	140	0	0	0	0	20	25	30	35	40	45	50	Paladin Monster: 40% to Deflect 20-50% Dmg R4
183	f	D	2	2	2	2	2	2	2	1	1	1	1	Paladin Monster: Strike Twice R7
174	f	R	2	2	2	2	2	2	2	2	2	2	1	Paladin Monster: No Retaliation R10
184	S	+	0	0	0	0	1	1	1	2	2	2	3	Hierophant Monster: Speed R4/R7/R10
184	W	+	0	20	25	30	35	40	45	50	55	60	65	Hierophant Monster: Magic Resist 20% R1+5%/Rank
184	w	m	0	1	1	1	1	1	1	1	1	1	1	Hierophant Monster: Immune to Hostile Mind Spells R1
184	r	100	0	0	0	0	50	60	70	80	90	100	110	Hierophant Monster: Regeneration 100% chance R4
184	a	#37	0	0	0	0	0	0	0	70	80	90	100	Hierophant Monster: Mass Cure after-att. 70%-100% R7
184	p	#48	0	10	20	30	40	50	60	70	80	90	100	Hierophant Monster: Mass Prayer pre-attack 10%/Rank
185	S	+	0	0	0	0	1	1	1	2	2	2	3	Temple Guardian Monster: Speed R4/R7/R10
185	W	+	0	20	25	30	35	40	45	50	55	60	65	Temple Guardian Monster: Magic Resist 20% R1+5%/Rank
185	p	#44	0	10	20	30	40	50	60	70	80	90	100	Temple Guardian: Mass Precision pre-att. 10%/Rank
185	C	+	0	0	0	0	1	1	2	2	3	3	4	Temple Guardian: Reduce Casting Cost R4/6/9/10
185	a	#28	0	0	0	0	0	0	0	20	40	60	80	Temple Guardian: Air Shield after-att. R7 20%/Rank
185	w	3	0	0	0	0	0	0	0	0	0	0	1	Temple Guardian: Immune to hostile L1-L3 Spells R10
186	S	+	0	0	0	0	1	1	1	2	2	2	3	Succubus Monster: Speed R4/R7/R10
186	W	+	0	20	25	30	35	40	45	50	55	60	65	Succubus Monster: Magic Resist 20% R1+5%/Rank
186	f	F	2	1	1	1	1	1	1	1	1	1	1	Succubus Monster: Flying R1
186	s	#29	0	0	0	0	1	1	2	2	3	3	3	Succubus Monster: Fire Shield R4
186	a	#60	0	0	0	0	0	0	0	25	30	35	40	Succubus Monser: Hypnotize after-attack 25%-40% R7
186	U	#48	0	0	0	0	0	0	0	0	0	0	100	"Succubus Monster: Summon Mult. Demons, Num=100% R10"
187	S	+	0	0	0	0	1	1	1	2	2	2	3	Soul Eater Monster: Speed R4/R7/R10
187	W	+	0	20	25	30	35	40	45	50	55	60	65	Soul Eater Monster: Magic Resist 20% R1+5%/Rank
187	f	U	1	1	1	1	1	1	1	1	1	1	1	Soul Eater Monster: Undead R0
187	f	M	1	1	1	1	1	1	1	1	1	1	1	Soul Eater Monster: No Morale R0
187	f	P	1	1	1	1	1	1	1	1	1	1	1	Soul Eater Monster: Immune to Mind Spells R0
187	F	=	2	2	2	2	1	1	1	1	1	1	1	Soul Eater Monster: Fear R4
187	p	#24	0	0	0	0	0	0	0	10	20	30	40	Soul Eater: Death Ripple pre-attack 10%-40% R7
188	S	+	0	0	0	0	1	1	1	2	2	2	3	Brute Monster: Speed R4/R7/R10
188	W	+	0	20	25	30	35	40	45	50	55	60	65	Brute Monster: Magic Resist 20% R1+5%/Rank
188	f	f	2	1	1	1	1	1	1	1	1	1	1	Brute Monster: Fearless R1
188	s	#43	0	0	0	0	1	1	2	2	3	3	3	Brute Monster: Enchanted with Bloodlust R4/6/8/10
188	B	+	0	0	0	0	0	0	0	10	20	30	40	Brute Monster: Block 10%-40% R7
188	f	R	2	2	2	2	2	2	2	2	2	2	1	Brute Monster: No Retaliation R10
189	S	+	0	0	0	0	1	1	1	2	2	2	3	Ogre Leader Monster: Speed R4/R7/R10
189	W	+	0	20	25	30	35	40	45	50	55	60	65	Ogre Leader Monster: Magic Resist 20% R1+5%/Rank
189	f	m	0	1	1	1	1	1	1	1	1	1	1	Ogre Leader Monster: Always Positive Morale R1
189	c	#71	0	0	0	0	20	30	40	50	60	70	80	Ogre Leader Monster: Poison 20%-80% R4
189	e	+	0	0	0	0	0	0	0	10	20	30	40	Ogre Leader Monster: 2xDmg Deathblow 10%-40% R7
189	f	D	2	2	2	2	2	2	2	2	2	2	1	Ogre Leader Monster: Strike Twice R10
190	S	+	0	0	0	0	1	1	1	2	2	2	3	Shaman Monster: Speed R4/R7/R10
190	W	+	0	20	25	30	35	40	45	50	55	60	65	Shaman Monster: Magic Resist 20% R1+5%/Rank
190	U	#104	0	50	50	50	0	0	0	0	0	0	0	Shaman Monster: Summon Mult. Serpent Fly Num=50% R1
190	U	#106	0	0	0	0	50	50	50	0	0	0	0	Shaman Monster: Summon Mult. Basilisks Num=50% R4
190	U	#102	0	0	0	0	0	0	0	50	50	0	0	Shaman Monster: Summon Mult. Gorgons Num=50% R7
190	U	#108	0	0	0	0	0	0	0	0	0	50	50	Shaman Monster: Summon Mult. Wyverns Num=50% R9
190	f	r	0	0	0	0	0	0	0	0	0	0	1	Shaman Monster: Rebirth R10
191	S	+	0	0	0	0	1	1	1	2	2	2	3	Astral Spirit Monster: Speed R4/R7/R10
191	W	+	0	20	25	30	35	40	45	50	55	60	65	Astral Spirit Monster: Magic Resist 20% R1+5%/Rank
191	f	M	1	1	1	1	1	1	1	1	1	1	1	Astral Spirit Monster: No Morale R0
191	f	F	2	1	1	1	1	1	1	1	1	1	1	Astral Spirit Monster: Flying R1
191	a	#58	0	0	0	0	10	20	30	40	50	60	70	Astral Spirit: Mass Counterstrike 10%-70% R4
191	f	A	2	2	2	2	2	2	2	1	1	1	1	Astral Spirit Monster: Attack All Around R7
191	f	b	0	0	0	0	0	0	0	0	0	0	1	Astral Spirit Monster: Strike & Return R10
147	A	=	0	0	0	0	0	0	0	0	0	0	0	First Aid Tent Attack (None)
147	M	=	0	0	0	0	0	0	0	0	0	0	0	First Aid Tent Max. Damage (None)
147	m	=	0	0	0	0	0	0	0	0	0	0	0	First Aid Tent Min. Damage (None)
148	A	=	0	0	0	0	0	0	0	0	0	0	0	Ammo Cart Attack (None)
148	M	=	0	0	0	0	0	0	0	0	0	0	0	Ammo Cart Max. Damage (None)
148	m	=	0	0	0	0	0	0	0	0	0	0	0	Ammo Cart Min. Damage (None)
196	S	+	0	0	0	0	1	1	2	2	2	2	3	Dracolich: Speed R4/R6/R10
196	c	#71	0	5	10	15	20	25	30	35	40	45	50	Dracolich: Poison 5% / rank
196	k	#71	0	5	10	15	20	25	30	35	40	45	50	Dracolich: Poison 5% / rank
196	O	+	0	1	1	1	2	2	3	3	4	4	5	Dracolich: +1 Shot every other Rank
196	f	u	0	0	0	0	0	1	1	1	1	1	1	Dracolich: Aura of Resistance Rank 5
197	A	+	0	1	2	2	3	4	5	6	6	7	8	Default Lvl 4 Attack R1/R2/R4/R5/R6/R7/R9/R10
197	D	+	0	1	2	3	3	4	4	5	6	7	8	Default Lvl 4 Defense R1/R2/R3/R5/R7/R8/R9/R10
197	M	+	0	0	1	1	2	2	3	3	4	4	5	Default Lvl 4 Max. Damage R2/R4/R6/R8/R10
197	m	+	0	0	0	1	2	2	3	3	4	4	4	Default Lvl 4 Min. Damage R3/R4/R6/R8
197	H	%	0	5	10	15	20	25	30	35	40	45	50	5% Health Bonus per Rank
197	S	+	0	0	0	0	1	1	1	1	1	1	1	Fanatic: Speed R4
197	e	=	0	2	5	7	10	12	15	17	20	22	25	Fanatic: Death Blow 2.5%/Rank
197	w	0	1	1	1	1	1	1	1	1	1	1	1	Fanatic: No Immunity to Friendly Spells R0
198	A	+	0	1	1	2	2	3	3	4	4	5	5	Default Lvl 3 Attack R1/R3/R5/R7/R9
198	D	+	0	1	1	2	2	3	3	4	4	5	5	Default Lvl 3 Defense R1/R3/R5/R7/R9
198	M	+	0	0	1	1	2	2	3	3	4	4	5	Default Lvl 3 Max. Damage R2/R4/R6/R8/R10
198	m	+	0	0	1	1	2	2	3	3	4	4	5	Default Lvl 3 Min. Damage R2/R4/R6/R8/R10
198	H	%	0	5	10	15	20	25	30	35	40	45	50	5% Health Bonus per Rank
198	S	+	0	0	0	0	1	1	1	1	1	1	1	Monstrous Eyes: Speed R4
198	s	#55	0	0	0	1	1	1	2	2	2	3	3	Monstrous Eyes: Slayer R3/R6/R9
198	f	f	0	0	0	0	0	0	0	1	1	1	1	Monstrous Eyes: Fearless R7
198	h	#84	0	1	2	3	4	5	6	7	8	9	10	Monstrous Eyes: Hatred Dmg-Goblin
198	h	#85	0	1	2	3	4	5	6	7	8	9	10	Monstrous Eyes: Hatred Dmg-Hobgoblin
199	A	+	0	2	3	3	4	6	6	7	7	7	9	Ancient Dendroid: Attack R1/R2/R4/R5/R7/R10
199	D	+	0	1	1	2	3	4	5	6	6	8	8	Ancient Dendroid: Defense R1/R3/R4/R5/R6/R7/R9
199	M	+	0	0	2	2	2	2	3	4	6	6	6	Ancient Dendroid: Max. Damage R2/R6/R7/R8
199	m	+	0	0	0	2	2	2	4	4	5	5	5	Ancient Dendroid: Min. Damage R3/R6/R8
199	H	%	0	5	10	15	20	25	30	35	40	45	50	5% Health Bonus per Rank
199	S	+	0	0	0	0	0	1	1	1	1	1	2	Ancient Dendroid: Speed R5/R10
199	b	=	0	4	8	12	16	20	24	28	32	36	40	Ancient Dendroid: Reduce Enemy Defence 4%/Rank
199	w	E	0	0	0	0	0	0	0	0	0	0	1	Ancient Dendroid: Immune to Hostile Earth Spells R10
199	U	#199	0	10	20	30	40	50	60	70	80	90	100	Ancient Dendroid: Summon 10%/Rank Dendroid Soldiers every 4 rounds
200	A	+	0	1	1	2	3	4	5	5	6	7	8	Default Lvl 5 Attack R1/R3/R4/R5/R6/R7/R9/R10
200	D	+	0	1	2	3	3	4	5	6	6	7	8	Default Lvl 5 Defense R1/R2/R3/R5/R6/R7/R9/R10
200	M	+	0	1	2	2	3	4	4	5	6	7	7	Default Lvl 5 Max. Damage R1/R2/R4/R5/R6/R8/R10
200	m	+	0	0	1	2	3	3	4	5	6	6	7	Default Lvl 5 Min. Damage R2/R3/R4/R6/R7/R8/R10
200	H	%	0	5	10	15	20	25	30	35	40	45	50	5% Health Bonus per Rank
200	S	+	0	0	0	0	1	1	1	1	1	1	2	Blood Minotaur: Speed R4/R10
200	f	m	1	1	1	1	1	1	1	1	1	1	1	Blood Minotaur: Always positive morale R4/R10
200	e	+	0	3	6	9	12	15	18	21	24	27	30	Blood Minotaur: Double Damage Death Blow 3%/Rank
200	s	#43	1	1	1	1	2	2	2	3	3	3	3	Blood Minotaur: Bloodlust
200	s	#31	1	1	1	1	2	2	2	2	3	3	3	Blood Minotaur: Protection from Fire, expert at R8"
201	A	+	0	1	1	2	3	4	5	5	6	7	8	Default Lvl 5 Attack R1/R3/R4/R5/R6/R7/R9/R10
201	D	+	0	1	2	3	3	4	5	6	6	7	8	Default Lvl 5 Defense R1/R2/R3/R5/R6/R7/R9/R10
201	M	+	0	1	2	2	3	4	4	5	6	7	7	Default Lvl 5 Max. Damage R1/R2/R4/R5/R6/R8/R10
201	m	+	0	0	1	2	3	3	4	5	6	6	7	Default Lvl 5 Min. Damage R2/R3/R4/R6/R7/R8/R10
201	H	%	0	5	10	15	20	25	30	35	40	45	50	5% Health Bonus per Rank
201	S	+	0	0	0	0	1	1	1	1	1	1	2	Mineral Elemental: Speed R4/R10
201	w	L	1	1	1	1	1	1	1	1	1	1	1	Mineral Elemental: Immune to all Lightning Spells R0
201	W	+	30	33	36	39	42	45	48	51	54	57	60	Mineral Elemental: Magic Resistance dwarf style 30% +3%/Rank
201	w	R	1	1	1	1	1	1	1	1	1	1	1	Mineral Elemental: Immunity to Armageddon at R0
201	w	E	0	0	0	0	0	0	1	1	1	1	1	Mineral Elemental: Immune to all Earth Spells, excluding beneficial R6
201	u	#113	0	10	20	30	40	50	60	70	80	90	100	Mineral Elemental: Summon Earth Elementals 10%/Rank
201	p	#33	0	0	0	4	7	10	13	16	19	22	25	"Mineral Elemental: cast mass Protection from Earth"
202	A	+	0	1	2	2	3	4	5	6	6	7	8	Default Lvl 4 Attack R1/R2/R4/R5/R6/R7/R9/R10
202	D	+	0	1	2	3	3	4	4	5	6	7	8	Default Lvl 4 Defense R1/R2/R3/R5/R7/R8/R9/R10
202	M	+	0	0	1	1	2	2	3	3	4	4	5	Default Lvl 4 Max. Damage R2/R4/R6/R8/R10
202	m	+	0	0	0	1	2	2	3	3	4	4	4	Default Lvl 4 Min. Damage R3/R4/R6/R8
202	H	%	0	5	10	15	20	25	30	35	40	45	50	5% Health Bonus per Rank
202	S	+	0	0	0	0	1	1	1	1	1	2	2	Electricity Elemental: Speed R4
202	w	L	1	1	1	1	1	1	1	1	1	1	1	Electricity Elemental: Immune to all Lightning Spells R0
202	w	0	0	0	0	0	0	0	1	1	1	1	1	Electricity Elemental: Not Immune to Friendly Fire Spells R6
202	p	#31	0	0	0	4	7	10	13	16	19	22	25	"Electricity Elemental: cast mass Protection from Fire"
202	s	#29	0	1	1	1	1	2	2	2	3	3	3	Electricity Elemental: Fire Shield Expert R8
203	A	+	0	1	2	2	3	4	5	6	6	7	8	Default Lvl 4 Attack R1/R2/R4/R5/R6/R7/R9/R10
203	D	+	0	1	2	3	3	4	4	5	6	7	8	Default Lvl 4 Defense R1/R2/R3/R5/R7/R8/R9/R10
203	M	+	0	0	1	1	2	2	3	3	4	4	5	Default Lvl 4 Max. Damage R2/R4/R6/R8/R10
203	m	+	0	0	0	1	2	2	3	3	4	4	4	Default Lvl 4 Min. Damage R3/R4/R6/R8
203	H	%	0	5	10	15	20	25	30	35	40	45	50	5% Health Bonus per Rank
203	S	+	0	0	0	0	1	1	1	1	1	1	2	///////// Ancient Basilisk
203	a	#70	30	33	36	39	42	45	48	51	54	57	60	Ancient Basilisk: Petrification +3%/Rank
203	s	#32	1	1	1	1	2	2	2	2	3	3	3	Ancient Basilisk: Protection from Water, expert at R8"
204	A	+	0	1	2	3	4	4	5	6	7	8	9	Default Lvl 6 Attack +1/Rank except R5
204	D	+	0	1	2	2	3	4	5	6	7	8	9	Default Lvl 6 Defense +1/Rank except R3
204	M	+	0	1	2	3	4	5	6	7	8	8	9	Default Lvl 6 Max. Damage +1/Rank except R9
204	m	+	0	0	1	2	3	4	5	5	6	7	8	Default Lvl 6 Min. Damage +1/Rank except R7
204	H	%	0	5	10	15	20	25	30	35	40	45	50	5% Health Bonus per Rank
204	S	+	0	0	0	0	1	1	1	1	1	1	2	Wyvern Monarch: Speed R4/R10
204	f	D	2	2	2	2	2	2	2	1	1	1	1	Wyvern Monarch: Strike Twice R7
204	r	#100	0	0	0	0	0	50	50	50	50	50	50	Wyvern Monarch: Regeneration-50 50% R5
204	c	#71	100	100	100	100	100	100	100	100	100	100	100	Wyvern Monarch: Poison
204	f	f	0	0	0	0	0	1	1	1	1	1	1	Wyvern Monarch: Fearless R5
205	A	+	0	1	2	3	4	4	5	6	7	8	9	Default Lvl 6 Attack +1/Rank except R5
205	D	+	0	1	2	2	3	4	5	6	7	8	9	Default Lvl 6 Defense +1/Rank except R3
205	M	+	0	1	2	3	4	5	6	7	8	8	9	Default Lvl 6 Max. Damage +1/Rank except R9
205	m	+	0	0	1	2	3	4	5	5	6	7	8	Default Lvl 6 Min. Damage +1/Rank except R7
205	H	%	0	5	10	15	20	25	30	35	40	45	50	5% Health Bonus per Rank
205	S	+	0	0	0	0	1	1	2	2	2	2	3	Myriad: Speed R4/R6/R10
205	h	#36	5	5	5	5	5	5	6	7	8	9	10	Myriad: Hatred Dmg-Genie (100% R10)
205	h	#37	5	5	5	5	5	5	6	7	8	9	10	Myriad: Hatred Dmg-Master Genie (100% R10)
205	w	m	0	0	0	0	0	1	1	1	1	1	1	Myriad: Immune to Hostile Mind Spells R5
205	s	#29	1	1	1	2	2	2	3	3	3	3	5	Myriad: Mass Fire Shield R10
205	w	0	0	0	0	0	1	1	1	1	1	1	1	Myriad: Not Immune Beneficial Fire Spells R5
205	f	R	2	2	2	2	2	2	2	1	1	1	1	Myriad: No Retaliation R7
206	A	+	0	1	2	2	3	4	5	6	6	7	8	Default Lvl 4 Attack R1/R2/R4/R5/R6/R7/R9/R10
206	D	+	0	1	2	3	3	4	4	5	6	7	8	Default Lvl 4 Defense R1/R2/R3/R5/R7/R8/R9/R10
206	M	+	0	0	1	1	2	2	3	3	4	4	5	Default Lvl 4 Max. Damage R2/R4/R6/R8/R10
206	m	+	0	0	0	1	2	2	3	3	4	4	4	Default Lvl 4 Min. Damage R3/R4/R6/R8
206	H	%	0	5	10	15	20	25	30	35	40	45	50	5% Health Bonus per Rank
206	S	+	0	0	0	0	1	1	1	1	1	1	2	Medusa Matriarch: Speed R4/R10
206	a	#70	20	20	20	20	22	24	26	28	30	32	35	Medusa Matriarch: Petrification +3%/Rank
206	O	+	0	1	1	1	2	2	2	3	3	3	4	Medusa Matriarch: Extra Shots +1/3 Ranks, +1 R10
207	A	+	0	1	1	2	3	4	5	5	6	7	8	Default Lvl 5 Attack R1/R3/R4/R5/R6/R7/R9/R10
207	D	+	0	1	2	3	3	4	5	6	6	7	8	Default Lvl 5 Defense R1/R2/R3/R5/R6/R7/R9/R10
207	M	+	0	1	2	2	3	4	4	5	6	7	7	Default Lvl 5 Max. Damage R1/R2/R4/R5/R6/R8/R10
207	m	+	0	0	1	2	3	3	4	5	6	6	7	Default Lvl 5 Min. Damage R2/R3/R4/R6/R7/R8/R10
207	H	%	0	5	10	15	20	25	30	35	40	45	50	5% Health Bonus per Rank
207	S	+	0	0	0	0	1	1	1	1	1	1	2	Thunderbird: Speed R4/R10
207	r	#100	0	9	18	27	36	45	54	63	72	81	90	Thunderbird: Regeneration 9HP/Rank
207	a	#17	10	10	10	15	20	25	30	35	40	45	50	Thunderbird: Lightning Bolt 5%/Rank
207	F	=	0	0	0	0	0	0	0	1	1	1	1	Thunderbird: Fear R7
207	s	#28	1	1	1	1	2	2	2	2	5	5	5	"Thunderbird: Air Shield, Mass at R8"
208	A	+	0	0	1	1	2	2	2	3	3	3	4	Default Lvl 2 Attack R2/R4/R7/R10
208	D	+	0	1	1	1	2	2	3	3	3	4	4	Default Lvl 2 Defense R1/R4/R6/R9
208	M	+	0	0	1	1	1	2	2	2	3	3	4	Default Lvl 2 Max. Damage R2/R5/R8/R10
208	m	+	0	0	0	1	1	1	2	2	3	3	3	Default Lvl 2 Min. Damage R3/R6/R8
208	H	%	0	5	10	15	20	25	30	35	40	45	50	5% Health Bonus per Rank
208	S	+	0	0	0	0	1	1	1	1	1	1	2	Huricane Elemental: Speed R4/R10
208	s	#30	0	1	1	1	1	2	2	2	2	3	5	"Hurricane Elemental: Protection from Air, Mass at R10"
208	g	%	0	2	4	6	8	10	12	14	16	18	20	Hurricane Elemental: Reduce Spell Damage 2%/Rank
209	A	+	0	1	1	2	3	4	5	5	6	7	8	Default Lvl 5 Attack R1/R3/R4/R5/R6/R7/R9/R10
209	D	+	0	1	2	3	3	4	5	6	6	7	8	Default Lvl 5 Defense R1/R2/R3/R5/R6/R7/R9/R10
209	M	+	0	1	2	2	3	4	4	5	6	7	7	Default Lvl 5 Max. Damage R1/R2/R4/R5/R6/R8/R10
209	m	+	0	0	1	2	3	3	4	5	6	6	7	Default Lvl 5 Min. Damage R2/R3/R4/R6/R7/R8/R10
209	H	%	0	5	10	15	20	25	30	35	40	45	50	5% Health Bonus per Rank
209	S	+	0	0	0	0	1	1	1	1	1	1	2	Pit Master: Speed R4/R10
209	s	#31	0	1	1	1	2	2	2	2	3	3	3	Pit Master: Protection from Fire R1=30% R5=50%
209	w	m	0	0	0	0	0	0	1	1	1	1	1	Pit Master: Immune to Hostile Mind Spells R6
209	f	D	2	2	2	2	2	2	2	1	1	1	1	Pit Master: Strike Twice R7
209	f	f	0	0	0	0	0	0	0	1	1	1	1	Pit Master: Fearless R7
209	u	#212	0	0	0	5	5	10	10	15	15	20	20	Pit Lord: Summon Greater Demons round 2 R3/R5/R7/R9
210	A	+	0	1	1	2	3	4	5	5	6	7	8	Default Lvl 5 Attack R1/R3/R4/R5/R6/R7/R9/R10
210	D	+	0	1	2	3	3	4	5	6	6	7	8	Default Lvl 5 Defense R1/R2/R3/R5/R6/R7/R9/R10
210	M	+	0	1	2	2	3	4	4	5	6	7	7	Default Lvl 5 Max. Damage R1/R2/R4/R5/R6/R8/R10
210	m	+	0	0	1	2	3	3	4	5	6	6	7	Default Lvl 5 Min. Damage R2/R3/R4/R6/R7/R8/R10
210	H	%	0	5	10	15	20	25	30	35	40	45	50	5% Health Bonus per Rank
210	S	+	0	0	0	0	1	1	1	1	1	1	2	Power Lich: Speed R4/R10
210	p	#24	0	5	10	15	20	25	30	35	40	45	50	Power Lich: Death Ripple pre-attack 5%/Rank
210	w	1	0	0	0	0	0	1	1	1	1	1	1	Power Lich: Immune to L1 Spells R5
210	w	2	0	0	0	0	0	0	0	0	0	1	1	Power Lich: Immune to L2 Spells R9
210	h	#35	0	1	2	3	4	5	6	7	8	9	10	Power Lich: Hatred Dmg-Arch Mage
211	A	+	0	0	0	1	1	1	2	2	2	2	2	Gnoll Raider: Attack R3/R6
211	D	+	0	1	1	1	1	1	1	2	2	3	4	Gnoll Raider: Defense R1/R7/R9/R10
211	M	+	0	0	0	0	0	1	1	1	2	2	2	Gnoll Raider: Max. Damage R5/R8
211	m	+	0	0	1	1	1	1	1	1	1	1	1	Gnoll Raider: Min. Damage R2
211	H	%	0	5	10	15	20	25	30	35	40	45	50	5% Health Bonus per Rank
211	S	+	0	0	0	0	1	1	1	1	1	1	2	Gnoll Raider: Speed R4/R10
211	f	c	0	0	0	0	0	0	0	1	1	1	1	Gnoll Raider: Charge Bonus R7
211	h	#15	0	2	4	6	8	10	12	14	16	18	20	Gnoll Raider: Hatred Dmg-Centaur Captain
212	A	+	0	1	2	2	3	4	5	6	6	7	8	Default Lvl 4 Attack R1/R2/R4/R5/R6/R7/R9/R10
212	D	+	0	1	2	3	3	4	4	5	6	7	8	Default Lvl 4 Defense R1/R2/R3/R5/R7/R8/R9/R10
212	M	+	0	0	1	1	2	2	3	3	4	4	5	Default Lvl 4 Max. Damage R2/R4/R6/R8/R10
212	m	+	0	0	0	1	2	2	3	3	4	4	4	Default Lvl 4 Min. Damage R3/R4/R6/R8
212	H	%	0	5	10	15	20	25	30	35	40	45	50	5% Health Bonus per Rank
212	S	+	0	0	0	0	1	1	1	1	1	1	2	Greater Demon: Speed R4/R10
212	s	#31	0	1	1	1	1	1	1	2	2	2	2	Greater Demon: Protection from Fire R1=30% R7=50%
212	L	#74	0	1	2	3	4	5	10	15	20	25	30	Greater Demon: Deflect 75% of Dmg. (30% R10)
212	e	=	0	0	0	5	10	15	20	25	30	40	50	Greater Demon: 2 x Dmg Death Blow (50% R10)
212	f	f	0	0	0	0	0	0	0	0	1	1	1	Greater Demon: Fearless R8
213	A	+	0	1	1	2	2	3	3	4	4	5	5	Default Lvl 3 Attack R1/R3/R5/R7/R9
213	D	+	0	1	1	2	2	3	3	4	4	5	5	Default Lvl 3 Defense R1/R3/R5/R7/R9
213	M	+	0	0	1	1	2	2	3	3	4	4	5	Default Lvl 3 Max. Damage R2/R4/R6/R8/R10
213	m	+	0	0	1	1	2	2	3	3	4	4	5	Default Lvl 3 Min. Damage R2/R4/R6/R8/R10
213	H	%	0	5	10	15	20	25	30	35	40	45	50	5% Health Bonus per Rank
213	S	+	0	0	0	0	1	1	1	1	1	1	2	Cesar Griffin: Speed R4/R10
213	L	#125	0	6	12	18	24	30	36	42	48	54	60	Cesar Griffin: 25% chance to Deflect 6% dmg./Rank
213	R	+	99	99	99	99	99	99	99	99	99	99	99	Cesar Griffin: Extra Retals 99
214	A	+	0	1	2	3	4	4	5	6	7	8	9	Default Lvl 6 Attack +1/Rank except R5
214	D	+	0	1	2	2	3	4	5	6	7	8	9	Default Lvl 6 Defense +1/Rank except R3
214	M	+	0	1	2	3	4	5	6	7	8	8	9	Default Lvl 6 Max. Damage +1/Rank except R9
214	m	+	0	0	1	2	3	4	5	5	6	7	8	Default Lvl 6 Min. Damage +1/Rank except R7
214	H	%	0	5	10	15	20	25	30	35	40	45	50	5% Health Bonus per Rank
214	S	+	0	0	0	0	1	1	1	1	1	1	2	Holy Champion: Speed R4/R10
214	f	R	2	2	2	2	2	1	1	1	1	1	1	Holy Champion: No Retaliation R5
214	s	#55	0	0	0	0	0	0	0	1	2	3	3	Holy Champion: Slayer R7/R8/R9
214	f	f	0	0	0	1	1	1	1	1	1	1	1	Holy Champion: Fearless R3
215	A	+	0	0	1	1	2	2	2	3	4	4	5	Dwarf Defender: Attack R2/R4/R7/R8/R10
215	D	+	0	1	1	1	1	1	2	2	3	4	4	Dwarf Defender: Defense R1/R6/R8/R9
215	H	%	0	9	18	27	36	45	54	63	72	81	90	Dwarf Defender: Health 9%/Rank (instead of 5%)
215	S	+	0	0	0	0	1	1	1	1	1	1	1	Dwarf Defender: Speed R4
215	M	+	0	0	0	1	1	2	2	2	3	3	3	Dwarf Defender: Max. Damage R3/R5/R8
215	m	+	0	0	0	1	1	2	2	3	3	3	3	Dwarf Defender: Min. Damage R3/R5/R7
215	W	+	0	4	8	12	16	20	24	28	32	36	40	Dwarf Defender: Magic Resistance +4%/Rank
216	A	+	0	1	2	2	2	4	7	7	9	10	11	Legendary Unicorn: Attack R1/R2/R5/R6/R8/R9/R10
216	D	+	0	1	1	3	3	5	5	5	6	6	8	Legendary Unicorn: Defense R1/R3/R5/R8/R10
216	M	+	0	0	2	2	4	4	4	6	7	9	9	Legendary Unicorn: Max. Damage R2/R4/R7/R8/R9
216	m	+	0	1	2	4	4	4	4	6	6	7	7	Legendary Unicorn: Min. Damage R1/R2/R3/R7/R9
216	H	%	0	5	10	15	20	25	30	35	40	45	50	5% Health Bonus per Rank
216	S	+	0	0	0	0	1	1	1	1	1	1	2	Legendary Unicorn: Speed R4/R10
216	a	#62	0	0	5	5	10	10	15	15	20	25	30	Legendary Unicorn: Blind bonus R2/R4/R6/R8/R9/R10
216	f	f	0	0	0	0	0	0	1	1	1	1	1	Legendary Unicorn: Fearless R6
217	A	+	0	0	1	1	2	2	2	3	3	3	4	Default Lvl 2 Attack R2/R4/R7/R10
217	D	+	0	1	1	1	2	2	3	3	3	4	4	Default Lvl 2 Defense R1/R4/R6/R9
217	M	+	0	0	1	1	1	2	2	2	3	3	4	Default Lvl 2 Max. Damage R2/R5/R8/R10
217	m	+	0	0	0	1	1	1	2	2	3	3	3	Default Lvl 2 Min. Damage R3/R6/R8
217	H	%	0	5	10	15	20	25	30	35	40	45	50	5% Health Bonus per Rank
217	S	+	0	0	0	0	1	1	1	1	1	1	2	Cathedral Gargoyle: Speed R4/R10
217	s	#46	0	0	0	1	1	2	2	2	2	5	5	"Cathedral Gargoyle: Stone Skin R3/R5, Mass R9"
217	w	E	0	0	0	0	0	0	0	1	1	1	1	Cathedral Gargoyle: Immune to Hostile Earth Spells R7
218	A	+	0	0	1	1	1	1	2	2	2	2	3	Default Lvl 1 Attack R2/R6/R10
218	D	+	0	1	1	1	1	2	2	2	2	3	3	Default Lvl 1 Defense R1/R5/R9
218	M	+	0	0	0	1	1	1	1	2	2	2	2	Default Lvl 1 Max. Damage R3/R7
218	m	+	0	0	0	0	1	1	1	1	2	2	2	Default Lvl 1 Min. Damage R4/R8
218	H	%	0	5	10	15	20	25	30	35	40	45	50	5% Health Bonus per Rank
218	S	+	0	0	0	0	1	1	1	1	1	1	1	Skeleton Archer: Speed R4
218	s	#28	0	0	0	1	1	1	2	2	2	2	2	Skeleton Archer: Air Shield R3/R6
218	w	N	0	0	0	0	0	1	1	1	1	1	1	Skeleton Archer: Immune to Dispel Beneficial Spells R5
218	w	P	0	0	0	0	0	0	0	1	1	0	0	Skeleton Archer: Immune to all Regular Dispels R7-R8
218	w	p	0	0	0	0	0	0	0	0	0	1	1	Skeleton Archer: Immune to Hostile Dispels R9
218	o	=	0	0	0	1	1	1	1	1	1	1	1	Skeleton Archer: No Obstacle Penalty R3
218	b	=	0	4	8	12	16	20	24	28	32	36	40	Skeleton Archer: Reduce Defense 4%/Rank
219	A	+	0	1	2	2	3	4	5	6	6	7	8	Default Lvl 4 Attack R1/R2/R4/R5/R6/R7/R9/R10
219	D	+	0	1	2	3	3	4	4	5	6	7	8	Default Lvl 4 Defense R1/R2/R3/R5/R7/R8/R9/R10
219	M	+	0	0	1	1	2	2	3	3	4	4	5	Default Lvl 4 Max. Damage R2/R4/R6/R8/R10
219	m	+	0	0	0	1	2	2	3	3	4	4	4	Default Lvl 4 Min. Damage R3/R4/R6/R8
219	H	%	0	5	10	15	20	25	30	35	40	45	50	5% Health Bonus per Rank
219	S	+	0	0	0	0	1	1	1	1	1	1	1	Ogre Warlock: Speed R4
219	L	#74	0	2	5	7	10	12	15	17	20	22	25	Ogre Warlock: Deflect 75% dmg. 2.5%/Rank to 25%
219	p	#43	0	0	0	4	7	10	13	16	19	22	25	Ogre Warlock: Mass Bloodlust pre-attack 3%/Rank R3
219	e	=	0	0	0	4	8	12	16	20	24	28	35	Ogre Warlock: Double Damage Death Blow (35% at R10)
220	A	+	0	0	1	1	2	2	2	3	3	3	4	Default Lvl 2 Attack R2/R4/R7/R10
220	D	+	0	1	1	1	2	2	3	3	3	4	4	Default Lvl 2 Defense R1/R4/R6/R9
220	M	+	0	0	1	1	1	2	2	2	3	3	4	Default Lvl 2 Max. Damage R2/R5/R8/R10
220	m	+	0	0	0	1	1	1	2	2	3	3	3	Default Lvl 2 Min. Damage R3/R6/R8
220	H	%	0	5	10	15	20	25	30	35	40	45	50	5% Health Bonus per Rank
220	S	+	0	0	0	0	1	1	1	1	1	1	2	Dire Wolf: Speed R4/R10
220	f	R	2	2	2	2	2	2	2	1	1	1	1	Dire Wolf: No Retaliation R7
221	A	+	0	0	1	1	2	2	2	3	3	3	4	Default Lvl 2 Attack R2/R4/R7/R10
221	D	+	0	1	1	1	2	2	3	3	3	4	4	Default Lvl 2 Defense R1/R4/R6/R9
221	M	+	0	0	1	1	1	2	2	2	3	3	4	Default Lvl 2 Max. Damage R2/R5/R8/R10
221	m	+	0	0	0	1	1	1	2	2	3	3	3	Default Lvl 2 Min. Damage R3/R6/R8
221	H	%	0	5	10	15	20	25	30	35	40	45	50	5% Health Bonus per Rank
221	S	+	0	0	0	0	1	1	1	1	1	1	1	Arcane Reptilion: Speed R4
221	f	D	2	2	2	2	2	2	2	1	1	1	1	Arcane Reptilion: Double Strike R7
221	c	#71	0	5	10	15	20	25	30	35	40	45	50	Arcane Reptilion: Poison 5%/Rank
221	f	R	2	2	2	2	2	1	1	1	1	1	1	Arcane Reptilion: No Retaliation R5
222	A	+	0	1	1	1	1	1	1	1	1	1	1	Blood Hornet: Attack R1
222	D	+	0	1	1	1	1	1	1	1	1	1	1	Blood Hornet: Defense R1
222	H	+	0	1	2	4	5	7	8	10	11	13	14	Blood Hornet: Health
222	S	+	0	0	0	0	1	2	3	3	4	4	5	Blood Hornet: Speed R4/R5/R6/R8/R10
222	f	A	2	2	2	2	2	2	2	1	1	1	1	Blood Hornet: Attack All Adjacent R7
222	R	+	0	0	0	0	0	1	1	2	2	3	4	Blood Hornet: Extra Retals R5/R7/R9/R10
223	H	%	0	5	10	15	20	25	30	35	40	45	50	5% Health Bonus per Rank
223	S	+	0	0	0	0	1	1	1	1	1	1	2	Golden Gorgon: Speed R4/R10
223	E	=	15	20	25	30	35	40	45	50	55	60	65	Golden Gorgon: Death Stare +5%/Rank
223	F	=	0	0	0	0	0	1	1	1	1	1	1	Golden Gorgon: Fear R5
224	A	+	0	1	1	2	2	3	3	4	4	5	5	Default Lvl 3 Attack R1/R3/R5/R7/R9
224	D	+	0	1	1	2	2	3	3	4	4	5	5	Default Lvl 3 Defense R1/R3/R5/R7/R9
224	M	+	0	0	1	1	2	2	3	3	4	4	5	Default Lvl 3 Max. Damage R2/R4/R6/R8/R10
224	m	+	0	0	1	1	2	2	3	3	4	4	5	Default Lvl 3 Min. Damage R2/R4/R6/R8/R10
224	H	%	0	5	10	15	20	25	30	35	40	45	50	5% Health Bonus per Rank
224	S	+	0	0	0	1	1	1	1	1	1	1	2	Life Elemental: Speed R4/R10
224	p	#16	0	3	6	9	12	15	18	21	24	27	30	Life Elemental: 3% Ice Bolt/Rank
224	s	#31	0	0	0	1	1	1	2	2	2	3	5	"Life Elemental: Protection from Fire, Mass at R10"
224	P	+	0	0	0	0	0	0	0	1	1	1	2	Life Elemental: Extra Resurrection R7 R10
225	A	+	0	1	2	3	4	4	5	6	7	8	9	Default Lvl 6 Attack +1/Rank except R5
225	D	+	0	1	2	2	3	4	5	6	7	8	9	Default Lvl 6 Defense +1/Rank except R3
225	M	+	0	1	2	3	4	5	6	7	8	8	9	Default Lvl 6 Max. Damage +1/Rank except R9
225	m	+	0	0	1	2	3	4	5	5	6	7	8	Default Lvl 6 Min. Damage +1/Rank except R7
225	H	%	0	5	10	15	20	25	30	35	40	45	50	5% Health Bonus per Rank
225	S	+	0	0	0	0	1	1	1	1	1	1	2	Void Elemental: Speed R4/R10
225	R	+	0	0	0	0	0	1	1	1	1	2	2	Void Elemental: Extra Retaliations R5/R9
225	w	0	0	0	0	0	0	0	0	0	0	1	1	Void Elemental: No Immune Beneficial Spells at L9
225	C	+	0	1	1	1	2	2	2	3	3	3	4	Void Elemental: Mana Reduction R1/R4/R7/R10
226	A	+	0	1	2	2	3	4	5	6	6	7	8	Default Lvl 4 Attack R1/R2/R4/R5/R6/R7/R9/R10
226	D	+	0	1	2	3	3	4	4	5	6	7	8	Default Lvl 4 Defense R1/R2/R3/R5/R7/R8/R9/R10
226	M	+	0	0	1	1	2	2	3	3	4	4	5	Default Lvl 4 Max. Damage R2/R4/R6/R8/R10
226	m	+	0	0	0	1	2	2	3	3	4	4	4	Default Lvl 4 Min. Damage R3/R4/R6/R8
226	H	%	0	5	10	15	20	25	30	35	40	45	50	5% Health Bonus per Rank
226	S	+	0	0	0	0	1	1	1	1	1	1	2	Nosferatu: Speed R4/R10
226	b	=	0	5	10	15	20	25	30	35	40	45	50	Nosferatu: Reduce Target's Defense 5%/Rank
226	a	#60	0	5	10	15	20	25	30	35	40	45	50	Nosferatu: Hypnotize 5%/Rank
227	A	+	0	0	1	1	1	1	2	2	2	2	3	Default Lvl 1 Attack R2/R6/R10
227	D	+	0	1	1	1	1	2	2	2	2	3	3	Default Lvl 1 Defense R1/R5/R9
227	M	+	0	0	0	1	1	1	1	2	2	2	2	Default Lvl 1 Max. Damage R3/R7
227	m	+	0	0	0	0	1	1	1	1	2	2	2	Default Lvl 1 Min. Damage R4/R8
227	H	%	0	5	10	15	20	25	30	35	40	45	50	5% Health Bonus per Rank
227	S	+	0	0	0	0	1	1	1	1	1	1	2	Nymph: Speed R4/R10
227	h	#56	0	0	0	0	0	0	1	2	3	4	5	Nymph: Hatred Dmg-Skeleton 
227	h	#57	0	0	0	0	0	0	1	2	3	4	5	Nymph: Hatred Dmg-Skeleton Warrior
227	W	+	0	2	4	6	8	10	12	14	16	18	20	Nymph: Resistance 2%/Rank
228	A	+	0	0	1	1	2	2	2	3	3	3	4	Default Lvl 2 Attack R2/R4/R7/R10
228	D	+	0	1	1	1	2	2	3	3	3	4	4	Default Lvl 2 Defense R1/R4/R6/R9
228	M	+	0	0	1	1	1	2	2	2	3	3	4	Default Lvl 2 Max. Damage R2/R5/R8/R10
228	m	+	0	0	0	1	1	1	2	2	3	3	3	Default Lvl 2 Min. Damage R3/R6/R8
228	H	%	0	5	10	15	20	25	30	35	40	45	50	5% Health Bonus per Rank
228	S	+	0	0	0	0	1	1	1	1	1	1	2	Musketeer: Speed R4/R10
228	o	=	0	0	0	0	0	1	1	1	1	1	1	Musketeer: No Obstacle Penalty R5
228	b	=	0	4	8	12	16	20	24	28	32	36	40	Musketeer: Reduce Defense 4%/Rank
229	A	+	0	1	2	2	2	3	3	3	4	4	4	Hunter: Attack R1/R2/R5/R8
229	D	+	0	1	1	3	3	3	4	4	5	5	6	Hunter: Defense R1/R3/R6/R8/R10
229	M	+	0	0	1	1	1	1	2	2	3	4	5	Hunter: Max. Damage R2/R6/R8/R9/R10
229	m	+	0	0	0	0	2	2	3	3	4	5	5	Hunter: Min. Damage R4/R6/R8/R9
229	H	%	0	5	10	15	20	25	30	35	40	45	50	5% Health Bonus per Rank
229	S	+	0	0	0	0	1	1	1	1	1	1	2	Hunter: Speed R4/R10
229	w	m	0	0	0	0	0	0	0	1	1	1	1	Hunter: Immune to Hostile Mind Spells R7
229	s	#44	0	0	0	0	0	1	1	1	1	1	1	Hunter: Precision R5
229	h	#89	0	1	2	3	4	5	5	5	5	5	5	Hunter: Hatred Dmg-Orc Chieftain
230	A	+	0	1	2	2	3	4	5	6	6	7	8	Default Lvl 4 Attack R1/R2/R4/R5/R6/R7/R9/R10
230	D	+	0	1	2	3	3	4	4	5	6	7	8	Default Lvl 4 Defense R1/R2/R3/R5/R7/R8/R9/R10
230	M	+	0	0	1	1	2	2	3	3	4	4	5	Default Lvl 4 Max. Damage R2/R4/R6/R8/R10
230	m	+	0	0	0	1	2	2	3	3	4	4	4	Default Lvl 4 Min. Damage R3/R4/R6/R8
230	H	%	0	5	10	15	20	25	30	35	40	45	50	5% Health Bonus per Rank
230	S	+	0	0	0	0	1	1	1	1	1	1	2	Master Arch Mage: Speed R40/R10
230	C	+	0	0	0	1	1	2	2	3	3	4	5	Master Arch Mage: Mana Reduction R3/R5/R7/R9/R10
230	G	%	100	120	140	160	180 200	220	240	260	280	300	320	Master Arch Mage: Bonus Guards 20%/Rank
230	G	=	1	1	1	1	1	1	1	1	1	1	1	Master Arch Mage: Upgraded Guards R5
231	A	+	0	0	1	2	2	2	4	4	5	7	7	Sacred Elves: Attack R2/R3/R6/R8/R9
231	D	+	0	2	2	2	3	3	4	4	5	5	7	Sacred Elves: Defense R1/R4/R6/R8/R10
231	M	+	0	0	2	2	2	4	4	4	5	5	5	Sacred Elves: Max. Damage R2/R5/R8
231	m	+	0	0	0	1	1	2	2	4	4	5	5	Sacred Elves: Min. Damage R3/R5/R7/R9
231	H	%	0	5	10	15	20	25	30	35	40	45	50	5% Health Bonus per Rank
231	S	+	0	0	0	0	1	1	2	2	2	2	3	Sacred Elves: Speed R4/R6/R10
231	f	b	0	0	0	0	0	1	1	1	1	1	1	Sacred Elves: Attack & Return R5
231	f	R	2	2	2	2	2	2	2	2	2	2	1	Sacred Elves: No Retaliation R10
232	A	+	0	1	1	2	3	4	5	5	6	7	8	Default Lvl 5 Attack R1/R3/R4/R5/R6/R7/R9/R10
232	D	+	0	1	2	3	3	4	5	6	6	7	8	Default Lvl 5 Defense R1/R2/R3/R5/R6/R7/R9/R10
232	M	+	0	1	2	2	3	4	4	5	6	7	7	Default Lvl 5 Max. Damage R1/R2/R4/R5/R6/R8/R10
232	m	+	0	0	1	2	3	3	4	5	6	6	7	Default Lvl 5 Min. Damage R2/R3/R4/R6/R7/R8/R10
232	H	%	0	5	10	15	20	25	30	35	40	45	50	5% Health Bonus per Rank
232	S	+	0	0	0	0	1	1	2	2	2	2	3	Arcane Genie: Speed at 40/60/100%
232	P	+	0	0	0	0	0	1	1	2	2	3	3	Arcane Genie: Increased # of Spells R5/R7/R9
232	h	#52	5	6	7	8	9	10	12	14	16	18	20	Arcane Genie: Hatred Dmg-Efreet (200% R10)
232	h	#53	5	6	7	8	9	10	12	14	16	18	20	Arcane Genie: Hatred Dmg-Efreet Sultan (200% R10)
232	h	#205	5	6	7	8	9	10	12	14	16	18	20	Arcane Genie: Hatred Dmg-Efreet Rajah (200% R10)
232	w	B	0	0	0	1	1	1	1	1	1	1	1	Arcane Genie: Blind Immunity R3
232	w	H	0	0	0	0	0	1	1	1	1	1	1	Arcane Genie: Hypnotize Immunity R5
232	w	K	0	0	0	0	0	0	0	1	1	1	1	Arcane Genie: Berserk Immunity R7
233	A	+	0	0	1	1	1	1	2	2	2	2	3	Default Lvl 1 Attack R2/R6/R10
233	D	+	0	1	1	1	1	2	2	2	2	3	3	Default Lvl 1 Defense R1/R5/R9
233	M	+	0	0	0	1	1	1	1	2	2	2	2	Default Lvl 1 Max. Damage R3/R7
233	m	+	0	0	0	0	1	1	1	1	2	2	2	Default Lvl 1 Min. Damage R4/R8
233	H	%	0	5	10	15	20	25	30	35	40	45	50	5% Health Bonus per Rank
233	S	+	0	0	0	0	1	1	1	1	1	1	1	Phosforous Troglodyte: Speed R4
233	w	F	0	0	0	0	0	0	0	1	1	1	1	Phosforous Troglodyte: Immune to Hostile Fire Spells R7
233	w	B	1	1	1	1	1	1	1	1	1	1	1	Phosforous Troglodyte: Blind Immunity R0
233	h	#118	0	1	1	2	2	3	3	4	4	5	6	Phosforous Troglodyte: Hatred Dmg-Pixie
233	h	#119	0	1	1	2	2	3	3	4	4	5	6	Phosforous Troglodyte: Hatred Dmg-Sprite
233	h	#227	0	1	1	2	2	3	3	4	4	5	6	Phosforous Troglodyte: Hatred Dmg-Nymph
234	A	+	0	0	1	1	2	2	2	3	3	3	4	Default Lvl 2 Attack R2/R4/R7/R10
234	D	+	0	1	1	1	2	2	3	3	3	4	4	Default Lvl 2 Defense R1/R4/R6/R9
234	M	+	0	0	1	1	1	2	2	2	3	3	4	Default Lvl 2 Max. Damage R2/R5/R8/R10
234	m	+	0	0	0	1	1	1	2	2	3	3	3	Default Lvl 2 Min. Damage R3/R6/R8
234	H	%	0	5	10	15	20	25	30	35	40	45	50	5% Health Bonus per Rank
234	S	+	0	0	0	0	1	1	1	1	1	1	2	Seducing Harpies: Speed R4/R10
234	s	#51	0	0	0	0	1	1	1	2	2	2	2	Seducing Harpies: Fortune R4/R7
234	c	#73	0	5	10	15	20	25	30	35	40	45	50	Seducing Harpies: Disease 5%/Rank
234	f	b	1	1	1	1	1	1	1	1	1	1	1	Seducing Harpies: Attack & Return R0
234	a	#60	0	5	10	15	20	25	30	35	40	45	50	Seducing Harpies: Hypnotize 5%/Rank
235	A	+	0	1	2	3	4	4	5	6	7	8	9	Default Lvl 6 Attack +1/Rank except R5
235	D	+	0	1	2	2	3	4	5	6	7	8	9	Default Lvl 6 Defense +1/Rank except R3
235	M	+	0	1	2	3	4	5	6	7	8	8	9	Default Lvl 6 Max. Damage +1/Rank except R9
235	m	+	0	0	1	2	3	4	5	5	6	7	8	Default Lvl 6 Min. Damage +1/Rank except R7
235	H	%	0	5	10	15	20	25	30	35	40	45	50	5% Health Bonus per Rank
235	S	+	0	0	0	0	1	1	1	1	1	1	2	Grim Reaper: Speed R4/R10
235	f	R	2	2	2	2	2	2	2	1	1	1	1	Grim Reaper: No Retaliation R7
235	h	#11	0	1	2	3	4	5	6	7	8	9	10	Grim Reaper: Hatred Dmg-Champion
235	E	=	15	22	29	36	43	50	57	64	71	78	85	Grim Reaper: Death Stare +7%/Rank
236	A	+	0	0	1	1	1	1	2	2	2	2	3	Default Lvl 1 Attack R2/R6/R10
236	D	+	0	1	1	1	1	2	2	2	2	3	3	Default Lvl 1 Defense R1/R5/R9
236	M	+	0	0	0	1	1	1	1	2	2	2	2	Default Lvl 1 Max. Damage R3/R7
236	m	+	0	0	0	0	1	1	1	1	2	2	2	Default Lvl 1 Min. Damage R4/R8
236	H	%	0	5	10	15	20	25	30	35	40	45	50	5% Health Bonus per Rank
236	S	+	0	0	0	0	0	1	1	1	1	1	2	Scamp: Speed R5/R10
236	f	F	2	2	2	2	2	1	1	1	1	1	1	Scamp: Flying R5
236	h	#29	0	0	0	0	0	0	1	2	3	4	5	Scamp: Hatred Dmg-Master Gremlin (50% R10)
236	s	#51	0	1	1	1	1	2	2	2	3	3	3	Scamp: Fortune R1/R5/R8 (Expert R8)
237	A	+	0	0	1	1	2	2	2	3	3	3	4	Default Lvl 2 Attack R2/R4/R7/R10
237	D	+	0	1	1	1	2	2	3	3	3	4	4	Default Lvl 2 Defense R1/R4/R6/R9
237	M	+	0	0	1	1	1	2	2	2	3	3	4	Default Lvl 2 Max. Damage R2/R5/R8/R10
237	m	+	0	0	0	1	1	1	2	2	3	3	3	Default Lvl 2 Min. Damage R3/R6/R8
237	H	%	0	5	10	15	20	25	30	35	40	45	50	5% Health Bonus per Rank
237	S	+	0	0	0	0	1	1	1	1	1	1	2	Succubus: Speed R4/R10
237	s	#31	0	0	0	0	0	1	1	1	1	1	1	Succubus: Protection from Fire R5 (30% Resistance)
237	i	=	0	0	0	0	0	0	0	0	1	1	1	Succubus: No Range Penalty R8
237	p	#21	0	5	10	15	20	25	30	35	40	45	50	Succubus: Fireball pre-attack 5%/Rank
237	a	#60	0	5	10	15	20	25	30	35	40	45	50	Succubus: Hypnotize 5%/Rank
238	A	+	0	1	1	2	2	3	3	4	4	5	5	Default Lvl 3 Attack R1/R3/R5/R7/R9
238	D	+	0	1	1	2	2	3	3	4	4	5	5	Default Lvl 3 Defense R1/R3/R5/R7/R9
238	M	+	0	0	1	1	2	2	3	3	4	4	5	Default Lvl 3 Max. Damage R2/R4/R6/R8/R10
238	m	+	0	0	1	1	2	2	3	3	4	4	5	Default Lvl 3 Min. Damage R2/R4/R6/R8/R10
238	H	%	0	5	10	15	20	25	30	35	40	45	50	5% Health Bonus per Rank
238	S	+	0	0	0	0	1	1	1	1	1	1	2	Astral Cerberus: Speed R4/R10
238	s	#31	0	0	0	1	1	1	1	1	2	2	2	Astral Cerberus: Protection from Fire R3=30% R8=50%
238	R	+	0	0	0	0	0	1	1	1	2	2	2	Astral Cerberus: Retaliate Twice R8/R9/R10
238	h	#5	0	0	0	0	0	0	1	2	3	4	5	Astral Cerberus: Hatred Dmg-Royal Griffin (50% R10)
238	a	#73	0	5	10	15	20	25	30	35	40	45	50	Astral Cerberus: Disease post-attack 5%/Rank
238	f	f	0	0	0	0	0	0	0	0	1	1	1	Astral Cerberus: Fearless R8
239	A	+	0	1	1	2	2	3	3	4	4	5	5	Default Lvl 3 Attack R1/R3/R5/R7/R9
239	D	+	0	1	1	2	2	3	3	4	4	5	5	Default Lvl 3 Defense R1/R3/R5/R7/R9
239	M	+	0	0	1	1	2	2	3	3	4	4	5	Default Lvl 3 Max. Damage R2/R4/R6/R8/R10
239	m	+	0	0	1	1	2	2	3	3	4	4	5	Default Lvl 3 Min. Damage R2/R4/R6/R8/R10
239	H	%	0	5	10	15	20	25	30	35	40	45	50	5% Health Bonus per Rank
239	S	+	0	0	0	0	1	1	1	1	1	1	1	Orc Leader: Speed R4
239	f	D	2	2	2	2	2	1	1	1	1	1	1	Orc Leader: Double Attack R5
239	i	=	0	0	0	0	0	0	0	0	0	1	1	Orc Leader: No Range Penalty R9
239	h	#18	0	1	2	3	4	5	5	5	5	5	5	Orc Leader: Hatred Dmg-Wood Elf
239	h	#19	0	1	2	3	4	5	5	5	5	5	5	Orc Leader: Hatred Dmg-Grand Elf
240	H	%	0	10	20	30	40	50	60	70	80	90	100	Spider Queen: 10% Health Bonus per Rank
240	S	+	0	0	0	0	1	1	1	1	1	1	2	Spider Queen: Speed R4/R10
240	R	+	0	0	0	0	0	1	1	2	2	3	4	Spider Queen: Extra Retals R5/R7/R9/R10
240	e	+	0	1	2	3	4	5	10	15	20	25	30	Spider Queen: 2 x Dmg Death Blow (30% R10)
240	C	+	0	0	0	1	1	2	2	3	3	4	5	Spider Queen: Mana Reduction R3/R5/R7/R9/R10
241	A	+	0	1	2	3	4	4	5	6	7	8	9	Default Lvl 6 Attack +1/Rank except R5
241	D	+	0	1	2	2	3	4	5	6	7	8	9	Default Lvl 6 Defense +1/Rank except R3
241	M	+	0	1	2	3	4	5	6	7	8	8	9	Default Lvl 6 Max. Damage +1/Rank except R9
241	m	+	0	0	1	2	3	4	5	5	6	7	8	Default Lvl 6 Min. Damage +1/Rank except R7
241	H	%	0	5	10	15	20	25	30	35	40	45	50	5% Health Bonus per Rank
241	S	+	0	0	0	0	1	1	1	1	1	1	2	Centamoth Thrower: Speed R4/R10
241	o	=	0	0	0	0	0	1	1	1	1	1	1	Centamoth Thrower: No Obstacle Penalty R5
241	i	=	0	0	0	0	0	0	0	1	1	1	1	Centamoth Thrower: No Range Penalty R7
241	p	#14	0	10	20	30	40	50	60	60	60	60	60	Centamoth Thrower: Earthquake pre-attack 10%/Rank to 60%
242	A	+	0	1	2	3	4	4	5	6	7	8	9	Default Lvl 6 Attack +1/Rank except R5
242	D	+	0	1	2	2	3	4	5	6	7	8	9	Default Lvl 6 Defense +1/Rank except R3
242	M	+	0	1	2	3	4	5	6	7	8	8	9	Default Lvl 6 Max. Damage +1/Rank except R9
242	m	+	0	0	1	2	3	4	5	5	6	7	8	Default Lvl 6 Min. Damage +1/Rank except R7
242	H	%	0	5	10	15	20	25	30	35	40	45	50	5% Health Bonus per Rank
242	S	+	0	0	0	0	1	1	2	2	2	2	3	Female Warlock: Speed R4/R6/R10
242	a	#74	0	0	0	0	0	5	5	10	10	15	20	Female Warlock: Paralyze bonus R5/R7/R9/R10
242	c	#80	0	5	10	15	20	25	30	35	40	45	50	Female Warlock: Acid Breath 5%/Rank
242	P	+	0	0	0	0	0	1	1	2	2	3	3	Female Warlock: Increased # of Spells R5/R7/R9
242	C	+	0	0	0	1	1	2	2	3	3	4	5	Female Warlock: Mana Reduction R3/R5/R7/R9/R10
252	A	+	0	1	2	2	3	4	5	6	6	7	8	Default Lvl 4 Attack R1/R2/R4/R5/R6/R7/R9/R10
252	D	+	0	1	2	3	3	4	4	5	6	7	8	Default Lvl 4 Defense R1/R2/R3/R5/R7/R8/R9/R10
252	M	+	0	0	1	1	2	2	3	3	4	4	5	Default Lvl 4 Max. Damage R2/R4/R6/R8/R10
252	m	+	0	0	0	1	2	2	3	3	4	4	4	Default Lvl 4 Min. Damage R3/R4/R6/R8
252	H	%	0	5	10	15	20	25	30	35	40	45	50	5% Health Bonus per Rank
252	S	+	0	0	0	0	1	1	1	1	1	1	2	Red Wizard: Speed R40/R10
252	C	+	0	0	0	1	1	2	2	3	3	4	5	Red Wizard: Mana Reduction R3/R5/R7/R9/R10
252	G	%	100	120	140	160	180 200	220	240	260	280	300	320	Red Wizard: Bonus Guards 20%/Rank
252	G	=	1	1	1	1	1	1	1	1	1	1	1	Red Wizard: Upgraded Guards R5
253	A	+	0	1	2	2	3	4	5	6	6	7	8	Default Lvl 4 Attack R1/R2/R4/R5/R6/R7/R9/R10
253	D	+	0	1	2	3	3	4	4	5	6	7	8	Default Lvl 4 Defense R1/R2/R3/R5/R7/R8/R9/R10
253	M	+	0	0	1	1	2	2	3	3	4	4	5	Default Lvl 4 Max. Damage R2/R4/R6/R8/R10
253	m	+	0	0	0	1	2	2	3	3	4	4	4	Default Lvl 4 Min. Damage R3/R4/R6/R8
253	H	%	0	5	10	15	20	25	30	35	40	45	50	5% Health Bonus per Rank
253	S	+	0	0	0	0	1	1	1	1	1	1	1	Templar: Speed R4
253	e	=	0	2	5	7	10	12	15	17	20	22	25	Templar: Death Blow 2.5%/Rank
253	w	0	1	1	1	1	1	1	1	1	1	1	1	Templar: No Immunity to Friendly Spells R0
254	A	+	0	1	1	2	3	4	5	5	6	7	8	Default Lvl 5 Attack R1/R3/R4/R5/R6/R7/R9/R10
254	D	+	0	1	2	3	3	4	5	6	6	7	8	Default Lvl 5 Defense R1/R2/R3/R5/R6/R7/R9/R10
254	M	+	0	1	2	2	3	4	4	5	6	7	7	Default Lvl 5 Max. Damage R1/R2/R4/R5/R6/R8/R10
254	m	+	0	0	1	2	3	3	4	5	6	6	7	Default Lvl 5 Min. Damage R2/R3/R4/R6/R7/R8/R10
254	H	%	0	5	10	15	20	25	30	35	40	45	50	5% Health Bonus per Rank
254	S	+	0	0	0	0	1	1	1	1	1	1	2	Druid: Speed R4/R10
254	w	N	0	0	0	0	0	0	0	0	0	1	1	Druid: Immune to Dispel Beneficial Spells R9
254	w	m	0	0	0	0	0	0	1	1	1	1	1	Druid: Immune to Hostile Mind Spells R6
254	i	=	0	0	0	0	0	0	0	0	1	1	1	Druid: No Range Penalty R8
254	h	#64	0	0	0	0	0	0	1	2	3	4	5	Druid: Hatred Dmg-Lich (50% at R10)
254	h	#65	0	0	0	0	0	0	1	2	3	4	5	Druid: Hatred Dmg-Power Lich (50% at R10)
255	A	+	0	1	2	3	4	5	6	7	8	9	10	Default Lvl 7 Attack +1/Rank
255	D	+	0	1	2	3	4	5	6	7	8	9	10	Default Lvl 7 Defense +1/Rank
255	M	+	0	1	2	3	4	5	6	7	8	9	10	Default Lvl 7 Max. Damage +1/Rank
255	m	+	0	1	2	3	4	5	6	7	8	9	10	Default Lvl 7 Min. Damage +1/Rank
255	H	%	0	5	10	15	20	25	30	35	40	45	50	5% Health Bonus per Rank
255	S	+	0	0	0	0	1	1	2	2	2	2	3	Supreme Dracolich: Speed R4/R6/R10
255	c	#71	0	5	10	15	20	25	30	35	40	45	50	Supreme Dracolich: Poison 5% / rank
255	k	#71	0	5	10	15	20	25	30	35	40	45	50	Supreme Dracolich: Poison 5% / rank
255	O	+	0	1	1	1	2	2	3	3	4	4	5	Supreme Dracolich: +1 Shot every other Rank
255	f	u	0	0	0	0	0	1	1	1	1	1	1	Supreme Dracolich: Aura of Resistance Rank 5
255	B	=	25	25	25	25	25	25	25	25	25	25	25	Supreme Dracolich: Block 25%
263	A	+	0	0	1	1	2	2	2	3	3	3	4	Default Lvl 2 Attack R2/R4/R7/R10
263	D	+	0	1	1	1	2	2	3	3	3	4	4	Default Lvl 2 Defense R1/R4/R6/R9
263	M	+	0	0	1	1	1	2	2	2	3	3	4	Default Lvl 2 Max. Damage R2/R5/R8/R10
263	m	+	0	0	0	1	1	1	2	2	3	3	3	Default Lvl 2 Min. Damage R3/R6/R8
263	H	%	0	5	10	15	20	25	30	35	40	45	50	5% Health Bonus per Rank
263	S	+	0	0	0	0	1	1	1	1	1	1	2	Countess Harpies: Speed R4/R10
263	s	#51	0	0	0	0	1	1	1	2	2	2	2	Countess Harpies: Fortune R4/R7
263	c	#73	0	5	10	15	20	25	30	35	40	45	50	Countess Harpies: Disease 5%/Rank
263	f	b	1	1	1	1	1	1	1	1	1	1	1	Countess Harpies: Attack & Return R0
263	a	#60	0	5	10	15	20	25	30	35	40	45	50	Countess Harpies: Hypnotize 5%/Rank
276	A	+	0	1	1	2	2	3	3	4	4	5	5	Default Lvl 3 Attack R1/R3/R5/R7/R9
276	D	+	0	1	1	2	2	3	3	4	4	5	5	Default Lvl 3 Defense R1/R3/R5/R7/R9
276	M	+	0	0	1	1	2	2	3	3	4	4	5	Default Lvl 3 Max. Damage R2/R4/R6/R8/R10
276	m	+	0	0	1	1	2	2	3	3	4	4	5	Default Lvl 3 Min. Damage R2/R4/R6/R8/R10
276	H	%	0	5	10	15	20	25	30	35	40	45	50	5% Health Bonus per Rank
276	S	+	0	0	0	0	1	1	1	1	1	1	2	Monstrous Eye: Speed R4/R10
276	w	m	0	0	0	0	0	0	0	1	1	1	1	Monstrous Eye: Immune to Hostile Mind Spells R7
277	A	+	0	1	1	1	1	1	1	1	1	1	1	Deadly Wasp: Attack R1
277	D	+	0	1	1	1	1	1	1	1	1	1	1	Deadly Wasp: Defense R1
277	H	+	0	1	2	4	5	7	8	10	11	13	14	Deadly Wasp: Health
277	S	+	0	0	0	0	1	2	3	3	4	4	5	Deadly Wasp: Speed R4/R5/R6/R8/R10
277	f	A	2	2	2	2	2	2	2	1	1	1	1	Deadly Wasp: Attack All Adjacent R7
277	R	+	0	0	0	0	0	1	1	2	2	3	4	Deadly Wasp: Extra Retals R5/R7/R9/R10
288	A	+	0	1	1	2	2	3	3	4	4	5	5	Default Lvl 3 Attack R1/R3/R5/R7/R9
288	D	+	0	1	1	2	2	3	3	4	4	5	5	Default Lvl 3 Defense R1/R3/R5/R7/R9
288	M	+	0	0	1	1	2	2	3	3	4	4	5	Default Lvl 3 Max. Damage R2/R4/R6/R8/R10
288	m	+	0	0	1	1	2	2	3	3	4	4	5	Default Lvl 3 Min. Damage R2/R4/R6/R8/R10
288	H	+	0	0	0	0	0	0	0	0	0	0	0	Elder Ghost: No Health Bonus
288	S	+	0	0	0	0	1	1	1	1	1	1	2	Elder Ghost: Speed R4/R10
288	c	#50	0	5	10	15	20	25	30	35	40	45	50	Elder Ghost: Sorrow post-attack 5%/Rank
288	w	S	0	0	0	0	1	1	1	1	1	1	1	Elder Ghost: Immune to Slow R4
289	A	+	0	1	2	2	3	4	5	6	6	7	8	Default Lvl 4 Attack R1/R2/R4/R5/R6/R7/R9/R10
289	D	+	0	1	2	3	3	4	4	5	6	7	8	Default Lvl 4 Defense R1/R2/R3/R5/R7/R8/R9/R10
289	M	+	0	0	1	1	2	2	3	3	4	4	5	Default Lvl 4 Max. Damage R2/R4/R6/R8/R10
289	m	+	0	0	0	1	2	2	3	3	4	4	4	Default Lvl 4 Min. Damage R3/R4/R6/R8
289	H	%	0	5	10	15	20	25	30	35	40	45	50	5% Health Bonus per Rank
289	S	+	0	0	0	0	1	1	1	1	1	1	2	///////// Ancient Basilisk
289	a	#70	30	33	36	39	42	45	48	51	54	57	60	Ancient Basilisk: Petrification +3%/Rank
289	s	#32	1	1	1	1	2	2	2	2	3	3	3	Ancient Basilisk: Protection from Water, expert at R8"
290	A	+	0	0	1	1	2	2	2	3	3	3	4	Default Lvl 2 Attack R2/R4/R7/R10
290	D	+	0	1	1	1	2	2	3	3	3	4	4	Default Lvl 2 Defense R1/R4/R6/R9
290	M	+	0	0	1	1	1	2	2	2	3	3	4	Default Lvl 2 Max. Damage R2/R5/R8/R10
290	m	+	0	0	0	1	1	1	2	2	3	3	3	Default Lvl 2 Min. Damage R3/R6/R8
290	H	%	0	5	10	15	20	25	30	35	40	45	50	5% Health Bonus per Rank
290	S	+	0	0	0	0	1	1	1	1	1	1	1	Mummy: Speed R4
290	a	#42	0	2	4	6	8	10	12	14	16	18	20	Mummy: Mass Curse post-attack 2%/Rank
290	g	%	0	3	6	9	12	15	18	21	24	27	30	Mummy: Reduce Spell Damage 3%/Rank
291	A	+	0	0	1	1	1	1	2	2	2	2	3	Default Lvl 1 Attack R2/R6/R10
291	D	+	0	1	1	1	1	2	2	2	2	3	3	Default Lvl 1 Defense R1/R5/R9
291	M	+	0	0	0	1	1	1	1	2	2	2	2	Default Lvl 1 Max. Damage R3/R7
291	m	+	0	0	0	0	1	1	1	1	2	2	2	Default Lvl 1 Min. Damage R4/R8
291	H	%	0	5	10	15	20	25	30	35	40	45	50	5% Health Bonus per Rank
291	S	+	0	0	0	0	1	1	1	1	1	1	2	Centaur Archers: Speed R4/R10
291	w	1	0	0	0	0	0	0	1	1	1	1	1	Centaur Archer: Immune to Hostile L1 Spells R6
292	A	+	0	1	2	3	4	4	5	6	7	8	9	Default Lvl 6 Attack +1/Rank except R5
292	D	+	0	1	2	2	3	4	5	6	7	8	9	Default Lvl 6 Defense +1/Rank except R3
292	M	+	0	1	2	3	4	5	6	7	8	8	9	Default Lvl 6 Max. Damage +1/Rank except R9
292	m	+	0	0	1	2	3	4	5	5	6	7	8	Default Lvl 6 Min. Damage +1/Rank except R7
292	S	+	0	0	0	0	1	1	1	1	1	1	2	Nicolai: Speed R4/R10
292	l	#136	0	5	10	15	20	25	0	0	0	0	0	Nicolai: Summon Clones of Enchanter
292	l	#292	0	0	0	0	0	0	15	20	25	30	35	Nicolai: Summon Clones of Nicolai
292	w	1	0	0	0	0	1	1	1	1	1	1	1	Nicolai: Immune to Hostile L1 Spells R4
292	w	2	0	0	0	0	0	0	1	1	1	1	1	Nicolai: Immune to Hostile L2 Spells R6
292	w	3	0	0	0	0	0	0	0	0	1	1	1	Nicolai: Immune to Hostile L3 Spells R8
292	w	4	0	0	0	0	0	0	0	0	0	0	1	Nicolai: Immune to Hostile L4 Spells R10
293	A	+	0	1	2	3	4	5	6	7	8	9	10	Default Lvl 7 Attack +1/Rank
293	D	+	0	1	2	3	4	5	6	7	8	9	10	Default Lvl 7 Defense +1/Rank
293	M	+	0	1	2	3	4	5	6	7	8	9	10	Default Lvl 7 Max. Damage +1/Rank
293	m	+	0	1	2	3	4	5	6	7	8	9	10	Default Lvl 7 Min. Damage +1/Rank
293	S	+	0	0	0	0	1	1	2	2	2	2	3	Sylfaen Dragon: Speed R4/R6/R10
293	B	=	0	5	10	15	20	25	25	25	25	25	25	Sylfaen Dragon: Block 5%/Rank to 25%
293	p	#65	0	5	10	15	20	25	30	35	40	45	50	Sylfaen Dragon: Clone Target 5%/Rank
293	s	#36	0	1	1	1	2	2	2	3	3	4	4	"Sylfaen Dragon: Magic Mirror, Mass at R9"
293	f	f	0	0	0	0	0	1	1	1	1	1	1	Sylfaen Dragon: Fearless R5




